Id;Designator;Package;Designation;Supplier and ref;Quantity
1;C18,C1,C2,C3,C5,C6,C10,C13,C14,C15,C16;C_0805_HandSoldering;100n;710-885012207072;11
2;C4;C_0805_HandSoldering;10n;710-885012207092;1
3;C7;C_0805_HandSoldering;4.7u;77-VJ0805V475MXQTBC;1
4;C9;C_0805_HandSoldering;4.7uF;77-VJ0805V475MXQTBC;1
5;C11,C12;C_0805_HandSoldering;18p;77-VJ0805A180GXQCBC;2
6;D4,D5,D6,D7,D8,D9,D10,D11,D12,D13,D14,D15,D16,D17,D18,D19,D20,D21,D22,D23,D24,D25,D26,D27;LED_0603;APT1608LSECK;604-APT1608LSECKJ4RV;24
7;D1;SOD-523;RB531SM-30;755-RB531SM-30T2R;1
8;D2,D3;LED_0603;Green;604-APT1608LSECKJ4RV;2
9;IC1;TQFP-32_7x7mm_Pitch0.8mm;ATMEGA328P-A;556-ATMEGA328P-AU;1
10;R14,R15,R16,R17,R18,R5,R13;R_0805_HandSoldering;4k7;71-CRCW0805J-4.7K-E3;7
11;R19,R20,R21,R22,R8,R9;R_0805_HandSoldering;390;667-ERJ-6GEYJ391V;6
12;R1;R_0805_HandSoldering;47k;667-ERJ-6ENF4702V;1
13;R2,R4,R7,R10,R11,R12;R_0805_HandSoldering;10k;588-AS08J1002ET;6
14;R3;R_0805_HandSoldering;2k;667-ERJ-6ENF2001V;1
15;R6;R_0805_HandSoldering;1k;588-AS08J1001ET;1
16;Q3,Q5,Q7,Q4,Q6,Q8,Q2;SOT-23_Handsoldering;BSS215P;726-BSS215PH6327XT;7
17;Q1;SOT-23_Handsoldering;DMP1045U;621-DMP1045U-7;1
18;U3;SOIC-16_3.9x9.9mm_Pitch1.27mm;CD74HC137;595-CD74HC137PWR;1
19;U1;SOT-23-5;MCP73831/2;579-MCP73831T5ACIOT;1
20;U2;SSOP-28_5.3x10.2mm_Pitch0.65mm;FT232RL;895-FT232RL;1
21;P1;micro-usb-b;USB_OTG;710-629105136821;1
22;Y1;Crystal_FSRLF;FSRLF,12.5pF;559-FSRLF327;1
23;SW1,SW2,SW3;Switch-FSM-JSM;SW_PUSH;506-2-1437565-8;3
24;BT1;Molex_KK-6410-02_02x2.54mm_Straight;3xAA/1xLiPo;;1
25;CON1;Pin_Header_Straight_2x03;AVR_ISP_6;;1
26;SP1;CPT-9019S-SMT;CPT-9019S-SMT;490-CPT-9019S-SMT-TR;1
27;C8;C_Radial_D10_L13_P5;1000uF;;1