EESchema Schematic File Version 2
LIBS:BinaryClock-rescue
LIBS:power
LIBS:device
LIBS:transistors
LIBS:conn
LIBS:linear
LIBS:regul
LIBS:74xx
LIBS:cmos4000
LIBS:adc-dac
LIBS:memory
LIBS:xilinx
LIBS:microcontrollers
LIBS:dsp
LIBS:microchip
LIBS:analog_switches
LIBS:motorola
LIBS:texas
LIBS:intel
LIBS:audio
LIBS:interface
LIBS:digital-audio
LIBS:philips
LIBS:display
LIBS:cypress
LIBS:siliconi
LIBS:opto
LIBS:atmel
LIBS:contrib
LIBS:valves
LIBS:demux
LIBS:simon
LIBS:BinaryClock-cache
EELAYER 25 0
EELAYER END
$Descr A4 11693 8268
encoding utf-8
Sheet 2 3
Title "Binary clock"
Date ""
Rev "1.1"
Comp ""
Comment1 ""
Comment2 ""
Comment3 ""
Comment4 ""
$EndDescr
$Comp
L SW_PUSH SW2
U 1 1 5785DAF4
P 10250 2550
F 0 "SW2" H 10400 2660 50  0000 C CNN
F 1 "SW_PUSH" H 10250 2470 50  0000 C CNN
F 2 "Simon:Switch-FSM-JSM" H 10250 2550 50  0001 C CNN
F 3 "" H 10250 2550 50  0000 C CNN
	1    10250 2550
	1    0    0    -1  
$EndComp
$Comp
L SW_PUSH SW3
U 1 1 5785DAFB
P 10250 3250
F 0 "SW3" H 10400 3360 50  0000 C CNN
F 1 "SW_PUSH" H 10250 3170 50  0000 C CNN
F 2 "Simon:Switch-FSM-JSM" H 10250 3250 50  0001 C CNN
F 3 "" H 10250 3250 50  0000 C CNN
	1    10250 3250
	1    0    0    -1  
$EndComp
$Comp
L GND #PWR05
U 1 1 5785DB02
P 11050 4050
F 0 "#PWR05" H 11050 3800 50  0001 C CNN
F 1 "GND" H 11050 3900 50  0000 C CNN
F 2 "" H 11050 4050 50  0000 C CNN
F 3 "" H 11050 4050 50  0000 C CNN
	1    11050 4050
	1    0    0    -1  
$EndComp
$Comp
L R R11
U 1 1 5785DB08
P 10800 2550
F 0 "R11" V 10880 2550 50  0000 C CNN
F 1 "10k" V 10800 2550 50  0000 C CNN
F 2 "Resistors_SMD:R_0805_HandSoldering" V 10730 2550 50  0001 C CNN
F 3 "" H 10800 2550 50  0000 C CNN
	1    10800 2550
	0    1    1    0   
$EndComp
$Comp
L R R12
U 1 1 5785DB0F
P 10800 3250
F 0 "R12" V 10880 3250 50  0000 C CNN
F 1 "10k" V 10800 3250 50  0000 C CNN
F 2 "Resistors_SMD:R_0805_HandSoldering" V 10730 3250 50  0001 C CNN
F 3 "" H 10800 3250 50  0000 C CNN
	1    10800 3250
	0    1    1    0   
$EndComp
$Comp
L SW_PUSH SW1
U 1 1 5785DB16
P 10250 1850
F 0 "SW1" H 10400 1960 50  0000 C CNN
F 1 "SW_PUSH" H 10250 1770 50  0000 C CNN
F 2 "Simon:Switch-FSM-JSM" H 10250 1850 50  0001 C CNN
F 3 "" H 10250 1850 50  0000 C CNN
	1    10250 1850
	1    0    0    -1  
$EndComp
$Comp
L R R10
U 1 1 5785DB1D
P 10800 1850
F 0 "R10" V 10880 1850 50  0000 C CNN
F 1 "10k" V 10800 1850 50  0000 C CNN
F 2 "Resistors_SMD:R_0805_HandSoldering" V 10730 1850 50  0001 C CNN
F 3 "" H 10800 1850 50  0000 C CNN
	1    10800 1850
	0    1    1    0   
$EndComp
$Comp
L Crystal_Small Y1
U 1 1 5785DB24
P 5450 5400
F 0 "Y1" H 5450 5500 50  0000 C CNN
F 1 "FSRLF,12.5pF" H 5450 5300 50  0000 C CNN
F 2 "Simon:Crystal_FSRLF" H 5450 5400 50  0001 C CNN
F 3 "" H 5450 5400 50  0000 C CNN
	1    5450 5400
	0    -1   -1   0   
$EndComp
$Comp
L C_Small C11
U 1 1 5785DB2B
P 5750 5200
F 0 "C11" H 5760 5270 50  0000 L CNN
F 1 "18p" H 5760 5120 50  0000 L CNN
F 2 "Capacitors_SMD:C_0805_HandSoldering" H 5750 5200 50  0001 C CNN
F 3 "" H 5750 5200 50  0000 C CNN
	1    5750 5200
	0    1    1    0   
$EndComp
$Comp
L C_Small C12
U 1 1 5785DB32
P 5750 5600
F 0 "C12" H 5760 5670 50  0000 L CNN
F 1 "18p" H 5760 5520 50  0000 L CNN
F 2 "Capacitors_SMD:C_0805_HandSoldering" H 5750 5600 50  0001 C CNN
F 3 "" H 5750 5600 50  0000 C CNN
	1    5750 5600
	0    1    1    0   
$EndComp
Text Label 3350 7000 0    60   ~ 0
LED_PWM
Text Label 3300 5200 0    60   ~ 0
MOSI
Text Label 3300 5300 0    60   ~ 0
MISO
Text Label 3300 5400 0    60   ~ 0
SCK
Text Label 5350 6350 0    60   ~ 0
RESET
Text Label 9650 1000 0    60   ~ 0
MISO
Text Label 9650 1100 0    60   ~ 0
SCK
Text Label 9650 1200 0    60   ~ 0
RESET
Text Label 10850 1100 0    60   ~ 0
MOSI
$Comp
L VCC #PWR06
U 1 1 5785DB4F
P 10900 900
F 0 "#PWR06" H 10900 750 50  0001 C CNN
F 1 "VCC" H 10900 1050 50  0000 C CNN
F 2 "" H 10900 900 50  0000 C CNN
F 3 "" H 10900 900 50  0000 C CNN
	1    10900 900 
	1    0    0    -1  
$EndComp
$Comp
L GND #PWR07
U 1 1 5785DB55
P 10900 1300
F 0 "#PWR07" H 10900 1050 50  0001 C CNN
F 1 "GND" H 10900 1150 50  0000 C CNN
F 2 "" H 10900 1300 50  0000 C CNN
F 3 "" H 10900 1300 50  0000 C CNN
	1    10900 1300
	1    0    0    -1  
$EndComp
$Comp
L AVR_ISP_6 CON1
U 1 1 5785DB5B
P 10350 1100
F 0 "CON1" H 10250 1350 60  0000 C CNN
F 1 "AVR_ISP_6" H 10350 850 60  0000 C CNN
F 2 "Pin_Headers:Pin_Header_Straight_2x03" H 10300 1100 60  0001 C CNN
F 3 "" H 10300 1100 60  0000 C CNN
	1    10350 1100
	1    0    0    -1  
$EndComp
$Comp
L FT232RL U2
U 1 1 5785DB62
P 7350 2700
F 0 "U2" H 6450 3200 60  0000 C CNN
F 1 "FT232RL" H 6850 2500 60  0000 C CNN
F 2 "Housings_SSOP:SSOP-28_5.3x10.2mm_Pitch0.65mm" H 7350 2700 60  0001 C CNN
F 3 "" H 7350 2700 60  0000 C CNN
	1    7350 2700
	1    0    0    -1  
$EndComp
Text Label 3350 6500 0    60   ~ 0
RXD
Text Label 3350 6600 0    60   ~ 0
TXD
Text Label 7900 2500 0    60   ~ 0
TXD
Text Label 7900 2400 0    60   ~ 0
RXD
$Comp
L GND #PWR08
U 1 1 5785DB6D
P 1150 7300
F 0 "#PWR08" H 1150 7050 50  0001 C CNN
F 1 "GND" H 1150 7150 50  0000 C CNN
F 2 "" H 1150 7300 50  0000 C CNN
F 3 "" H 1150 7300 50  0000 C CNN
	1    1150 7300
	1    0    0    -1  
$EndComp
$Comp
L GND #PWR09
U 1 1 5785DB73
P 1700 4350
F 0 "#PWR09" H 1700 4100 50  0001 C CNN
F 1 "GND" H 1700 4200 50  0000 C CNN
F 2 "" H 1700 4350 50  0000 C CNN
F 3 "" H 1700 4350 50  0000 C CNN
	1    1700 4350
	1    0    0    -1  
$EndComp
$Comp
L VCC #PWR010
U 1 1 5785DB79
P 1700 3800
F 0 "#PWR010" H 1700 3650 50  0001 C CNN
F 1 "VCC" H 1700 3950 50  0000 C CNN
F 2 "" H 1700 3800 50  0000 C CNN
F 3 "" H 1700 3800 50  0000 C CNN
	1    1700 3800
	1    0    0    -1  
$EndComp
$Comp
L C_Small C3
U 1 1 5785DB7F
P 1700 4050
F 0 "C3" H 1550 4000 50  0000 L CNN
F 1 "100n" H 1450 4100 50  0000 L CNN
F 2 "Capacitors_SMD:C_0805_HandSoldering" H 1700 4050 50  0001 C CNN
F 3 "" H 1700 4050 50  0000 C CNN
	1    1700 4050
	-1   0    0    1   
$EndComp
$Comp
L GND #PWR011
U 1 1 5785DB86
P 2100 4350
F 0 "#PWR011" H 2100 4100 50  0001 C CNN
F 1 "GND" H 2100 4200 50  0000 C CNN
F 2 "" H 2100 4350 50  0000 C CNN
F 3 "" H 2100 4350 50  0000 C CNN
	1    2100 4350
	1    0    0    -1  
$EndComp
$Comp
L VCC #PWR012
U 1 1 5785DB8C
P 2100 3800
F 0 "#PWR012" H 2100 3650 50  0001 C CNN
F 1 "VCC" H 2100 3950 50  0000 C CNN
F 2 "" H 2100 3800 50  0000 C CNN
F 3 "" H 2100 3800 50  0000 C CNN
	1    2100 3800
	1    0    0    -1  
$EndComp
$Comp
L C_Small C5
U 1 1 5785DB92
P 2100 4050
F 0 "C5" H 1950 4000 50  0000 L CNN
F 1 "100n" H 1850 4100 50  0000 L CNN
F 2 "Capacitors_SMD:C_0805_HandSoldering" H 2100 4050 50  0001 C CNN
F 3 "" H 2100 4050 50  0000 C CNN
	1    2100 4050
	-1   0    0    1   
$EndComp
$Comp
L GND #PWR013
U 1 1 5785DB99
P 2500 4350
F 0 "#PWR013" H 2500 4100 50  0001 C CNN
F 1 "GND" H 2500 4200 50  0000 C CNN
F 2 "" H 2500 4350 50  0000 C CNN
F 3 "" H 2500 4350 50  0000 C CNN
	1    2500 4350
	1    0    0    -1  
$EndComp
$Comp
L VCC #PWR014
U 1 1 5785DB9F
P 2500 3800
F 0 "#PWR014" H 2500 3650 50  0001 C CNN
F 1 "VCC" H 2500 3950 50  0000 C CNN
F 2 "" H 2500 3800 50  0000 C CNN
F 3 "" H 2500 3800 50  0000 C CNN
	1    2500 3800
	1    0    0    -1  
$EndComp
$Comp
L C_Small C6
U 1 1 5785DBA5
P 2500 4050
F 0 "C6" H 2350 4000 50  0000 L CNN
F 1 "100n" H 2250 4100 50  0000 L CNN
F 2 "Capacitors_SMD:C_0805_HandSoldering" H 2500 4050 50  0001 C CNN
F 3 "" H 2500 4050 50  0000 C CNN
	1    2500 4050
	-1   0    0    1   
$EndComp
$Comp
L GND #PWR015
U 1 1 5785DBAC
P 1250 4250
F 0 "#PWR015" H 1250 4000 50  0001 C CNN
F 1 "GND" H 1250 4100 50  0000 C CNN
F 2 "" H 1250 4250 50  0000 C CNN
F 3 "" H 1250 4250 50  0000 C CNN
	1    1250 4250
	1    0    0    -1  
$EndComp
$Comp
L C_Small C2
U 1 1 5785DBB8
P 1250 4050
F 0 "C2" H 1100 4000 50  0000 L CNN
F 1 "100n" H 1000 4100 50  0000 L CNN
F 2 "Capacitors_SMD:C_0805_HandSoldering" H 1250 4050 50  0001 C CNN
F 3 "" H 1250 4050 50  0000 C CNN
	1    1250 4050
	-1   0    0    1   
$EndComp
$Comp
L VCC #PWR016
U 1 1 5785DC37
P 5200 5900
F 0 "#PWR016" H 5200 5750 50  0001 C CNN
F 1 "VCC" H 5200 6050 50  0000 C CNN
F 2 "" H 5200 5900 50  0000 C CNN
F 3 "" H 5200 5900 50  0000 C CNN
	1    5200 5900
	1    0    0    -1  
$EndComp
$Comp
L R R7
U 1 1 5785DC3D
P 5200 6150
F 0 "R7" V 5280 6150 50  0000 C CNN
F 1 "10k" V 5200 6150 50  0000 C CNN
F 2 "Resistors_SMD:R_0805_HandSoldering" V 5130 6150 50  0001 C CNN
F 3 "" H 5200 6150 50  0000 C CNN
	1    5200 6150
	1    0    0    -1  
$EndComp
$Comp
L C_Small C10
U 1 1 5785DC45
P 5200 6500
F 0 "C10" H 5210 6570 50  0000 L CNN
F 1 "100n" H 5210 6420 50  0000 L CNN
F 2 "Capacitors_SMD:C_0805_HandSoldering" H 5200 6500 50  0001 C CNN
F 3 "" H 5200 6500 50  0000 C CNN
	1    5200 6500
	1    0    0    -1  
$EndComp
$Comp
L GND #PWR017
U 1 1 5785DC4C
P 5200 6700
F 0 "#PWR017" H 5200 6450 50  0001 C CNN
F 1 "GND" H 5200 6550 50  0000 C CNN
F 2 "" H 5200 6700 50  0000 C CNN
F 3 "" H 5200 6700 50  0000 C CNN
	1    5200 6700
	1    0    0    -1  
$EndComp
NoConn ~ 6050 3250
NoConn ~ 6050 3350
$Comp
L GND #PWR018
U 1 1 5785DC58
P 7050 4400
F 0 "#PWR018" H 7050 4150 50  0001 C CNN
F 1 "GND" H 7050 4250 50  0000 C CNN
F 2 "" H 7050 4400 50  0000 C CNN
F 3 "" H 7050 4400 50  0000 C CNN
	1    7050 4400
	1    0    0    -1  
$EndComp
$Comp
L C_Small C13
U 1 1 5785DC6C
P 5900 3800
F 0 "C13" H 5910 3870 50  0000 L CNN
F 1 "100n" H 5910 3720 50  0000 L CNN
F 2 "Capacitors_SMD:C_0805_HandSoldering" H 5900 3800 50  0001 C CNN
F 3 "" H 5900 3800 50  0000 C CNN
	1    5900 3800
	1    0    0    -1  
$EndComp
$Comp
L GND #PWR019
U 1 1 5785DC73
P 5900 4000
F 0 "#PWR019" H 5900 3750 50  0001 C CNN
F 1 "GND" H 5900 3850 50  0000 C CNN
F 2 "" H 5900 4000 50  0000 C CNN
F 3 "" H 5900 4000 50  0000 C CNN
	1    5900 4000
	1    0    0    -1  
$EndComp
$Comp
L USB_OTG-RESCUE-BinaryClock P1
U 1 1 5785DC82
P 1100 2700
AR Path="/5785DC82" Ref="P1"  Part="1" 
AR Path="/5785D1A6/5785DC82" Ref="P1"  Part="1" 
F 0 "P1" H 1425 2575 50  0000 C CNN
F 1 "USB_OTG" H 1100 2900 50  0000 C CNN
F 2 "Simon:micro-usb-b" V 1050 2600 50  0001 C CNN
F 3 "" V 1050 2600 50  0000 C CNN
	1    1100 2700
	0    -1   1    0   
$EndComp
$Comp
L GND #PWR020
U 1 1 5785DC8B
P 1400 3150
F 0 "#PWR020" H 1400 2900 50  0001 C CNN
F 1 "GND" H 1400 3000 50  0000 C CNN
F 2 "" H 1400 3150 50  0000 C CNN
F 3 "" H 1400 3150 50  0000 C CNN
	1    1400 3150
	1    0    0    -1  
$EndComp
Text GLabel 4100 5750 2    60   Input ~ 0
LED_ROW0
Text GLabel 4100 5850 2    60   Input ~ 0
LED_ROW1
Text GLabel 4100 5950 2    60   Input ~ 0
LED_ROW2
Text GLabel 4100 6050 2    60   Input ~ 0
LED_ROW3
Text GLabel 4100 7000 2    60   Input ~ 0
LED_PWM
Text GLabel 4100 6700 2    60   Input ~ 0
LED_COL_ADDR0
Text GLabel 4100 6800 2    60   Input ~ 0
LED_COL_ADDR1
Text GLabel 4100 6900 2    60   Input ~ 0
LED_COL_ADDR2
$Comp
L Q_PMOS_GSD Q1
U 1 1 579118EE
P 3400 1350
F 0 "Q1" H 3750 1450 50  0000 R CNN
F 1 "DMP1045U" H 4000 1300 50  0000 R CNN
F 2 "TO_SOT_Packages_SMD:SOT-23_Handsoldering" H 3600 1450 50  0001 C CNN
F 3 "" H 3400 1350 50  0000 C CNN
	1    3400 1350
	1    0    0    1   
$EndComp
$Comp
L Battery-RESCUE-BinaryClock BT1
U 1 1 5790F713
P 3500 1800
AR Path="/5790F713" Ref="BT1"  Part="1" 
AR Path="/5785D1A6/5790F713" Ref="BT1"  Part="1" 
F 0 "BT1" H 3600 1850 50  0000 L CNN
F 1 "3xAA/1xLiPo" H 3600 1750 50  0000 L CNN
F 2 "Connectors_Molex:Molex_KK-6410-02_02x2.54mm_Straight" V 3500 1840 50  0001 C CNN
F 3 "" V 3500 1840 50  0000 C CNN
	1    3500 1800
	1    0    0    -1  
$EndComp
$Comp
L GND #PWR021
U 1 1 5790F7A3
P 3500 2050
F 0 "#PWR021" H 3500 1800 50  0001 C CNN
F 1 "GND" H 3500 1900 50  0000 C CNN
F 2 "" H 3500 2050 50  0000 C CNN
F 3 "" H 3500 2050 50  0000 C CNN
	1    3500 2050
	1    0    0    -1  
$EndComp
$Comp
L R R1
U 1 1 5790FD80
P 900 1800
F 0 "R1" V 980 1800 50  0000 C CNN
F 1 "47k" V 900 1800 50  0000 C CNN
F 2 "Resistors_SMD:R_0805_HandSoldering" V 830 1800 50  0001 C CNN
F 3 "" H 900 1800 50  0000 C CNN
	1    900  1800
	1    0    0    -1  
$EndComp
$Comp
L GND #PWR022
U 1 1 5790FDEC
P 900 2100
F 0 "#PWR022" H 900 1850 50  0001 C CNN
F 1 "GND" H 900 1950 50  0000 C CNN
F 2 "" H 900 2100 50  0000 C CNN
F 3 "" H 900 2100 50  0000 C CNN
	1    900  2100
	1    0    0    -1  
$EndComp
$Comp
L D_Schottky_Small D1
U 1 1 5790FFB4
P 950 850
F 0 "D1" H 900 930 50  0000 L CNN
F 1 "RB531SM-30" H 670 770 50  0000 L CNN
F 2 "Diodes_SMD:SOD-523" V 950 850 50  0001 C CNN
F 3 "" V 950 850 50  0000 C CNN
	1    950  850 
	-1   0    0    1   
$EndComp
$Comp
L C C9
U 1 1 579104A1
P 5000 1550
F 0 "C9" H 5025 1650 50  0000 L CNN
F 1 "4.7uF" H 5025 1450 50  0000 L CNN
F 2 "Capacitors_SMD:C_0805_HandSoldering" H 5038 1400 50  0001 C CNN
F 3 "" H 5000 1550 50  0000 C CNN
	1    5000 1550
	1    0    0    -1  
$EndComp
$Comp
L GND #PWR023
U 1 1 57910B50
P 5000 1850
F 0 "#PWR023" H 5000 1600 50  0001 C CNN
F 1 "GND" H 5000 1700 50  0000 C CNN
F 2 "" H 5000 1850 50  0000 C CNN
F 3 "" H 5000 1850 50  0000 C CNN
	1    5000 1850
	1    0    0    -1  
$EndComp
Text Notes 550  600  0    60   ~ 0
Power supply 3-5.25V
$Comp
L C_Small C4
U 1 1 57A4B0ED
P 1750 2900
F 0 "C4" H 1760 2970 50  0000 L CNN
F 1 "10n" H 1760 2820 50  0000 L CNN
F 2 "Capacitors_SMD:C_0805_HandSoldering" H 1750 2900 50  0001 C CNN
F 3 "" H 1750 2900 50  0000 C CNN
	1    1750 2900
	1    0    0    -1  
$EndComp
Text Label 9400 1850 0    60   ~ 0
BTN0
Text Label 9400 2550 0    60   ~ 0
BTN1
Text Label 9400 3250 0    60   ~ 0
BTN2
Text Label 3300 4900 0    60   ~ 0
BTN0
Text Label 3300 5000 0    60   ~ 0
BTN1
Text Label 3350 7200 0    60   ~ 0
BTN2
$Comp
L Led_Small D2
U 1 1 57A4BD57
P 8650 3200
F 0 "D2" H 8600 3325 50  0000 L CNN
F 1 "Green" H 8475 3100 50  0000 L CNN
F 2 "LEDs:LED_0603" V 8650 3200 50  0001 C CNN
F 3 "" V 8650 3200 50  0000 C CNN
	1    8650 3200
	1    0    0    -1  
$EndComp
$Comp
L Led_Small D3
U 1 1 57A4BDB6
P 8650 3600
F 0 "D3" H 8600 3725 50  0000 L CNN
F 1 "Green" H 8475 3500 50  0000 L CNN
F 2 "LEDs:LED_0603" V 8650 3600 50  0001 C CNN
F 3 "" V 8650 3600 50  0000 C CNN
	1    8650 3600
	1    0    0    -1  
$EndComp
$Comp
L R R8
U 1 1 57A4C0F4
P 8200 3200
F 0 "R8" V 8280 3200 50  0000 C CNN
F 1 "390" V 8200 3200 50  0000 C CNN
F 2 "Resistors_SMD:R_0805_HandSoldering" V 8130 3200 50  0001 C CNN
F 3 "" H 8200 3200 50  0000 C CNN
	1    8200 3200
	0    1    1    0   
$EndComp
$Comp
L R R9
U 1 1 57A4C169
P 8200 3600
F 0 "R9" V 8280 3600 50  0000 C CNN
F 1 "390" V 8200 3600 50  0000 C CNN
F 2 "Resistors_SMD:R_0805_HandSoldering" V 8130 3600 50  0001 C CNN
F 3 "" H 8200 3600 50  0000 C CNN
	1    8200 3600
	0    1    1    0   
$EndComp
NoConn ~ 7650 2600
NoConn ~ 7650 2700
NoConn ~ 7650 2800
NoConn ~ 7650 2900
NoConn ~ 7650 3000
NoConn ~ 7650 3100
NoConn ~ 7650 3400
NoConn ~ 7650 3500
NoConn ~ 7650 3600
NoConn ~ 6050 3050
NoConn ~ 1250 6250
NoConn ~ 1400 2800
$Comp
L GNDA #PWR024
U 1 1 57C04A0E
P 6150 5750
F 0 "#PWR024" H 6150 5500 50  0001 C CNN
F 1 "GNDA" H 6150 5600 50  0000 C CNN
F 2 "" H 6150 5750 50  0000 C CNN
F 3 "" H 6150 5750 50  0000 C CNN
	1    6150 5750
	1    0    0    -1  
$EndComp
$Comp
L C_Small C1
U 1 1 57FFED98
P 700 6550
F 0 "C1" H 500 6500 50  0000 L CNN
F 1 "100n" H 500 6650 50  0000 L CNN
F 2 "Capacitors_SMD:C_0805_HandSoldering" H 700 6550 50  0001 C CNN
F 3 "" H 700 6550 50  0000 C CNN
	1    700  6550
	-1   0    0    1   
$EndComp
$Comp
L GNDA #PWR025
U 1 1 57FFF3AE
P 700 6800
F 0 "#PWR025" H 700 6550 50  0001 C CNN
F 1 "GNDA" H 700 6650 50  0000 C CNN
F 2 "" H 700 6800 50  0000 C CNN
F 3 "" H 700 6800 50  0000 C CNN
	1    700  6800
	1    0    0    -1  
$EndComp
$Comp
L R R4
U 1 1 58000B67
P 3800 3150
F 0 "R4" V 3880 3150 50  0000 C CNN
F 1 "4k7" V 3800 3150 50  0000 C CNN
F 2 "Resistors_SMD:R_0805_HandSoldering" V 3730 3150 50  0001 C CNN
F 3 "" H 3800 3150 50  0000 C CNN
	1    3800 3150
	-1   0    0    -1  
$EndComp
Text Label 2700 2900 0    60   ~ 0
USB_SENSE
Text Label 3350 7100 0    60   ~ 0
USB_SENSE
$Comp
L VCC #PWR026
U 1 1 5804F684
P 5350 850
F 0 "#PWR026" H 5350 700 50  0001 C CNN
F 1 "VCC" V 5350 1050 50  0000 C CNN
F 2 "" H 5350 850 50  0000 C CNN
F 3 "" H 5350 850 50  0000 C CNN
	1    5350 850 
	0    1    1    0   
$EndComp
$Comp
L +BATT #PWR027
U 1 1 58051274
P 700 6200
F 0 "#PWR027" H 700 6050 50  0001 C CNN
F 1 "+BATT" H 700 6350 50  0000 C CNN
F 2 "" H 700 6200 50  0000 C CNN
F 3 "" H 700 6200 50  0000 C CNN
	1    700  6200
	1    0    0    -1  
$EndComp
$Comp
L VCC #PWR028
U 1 1 58069869
P 8950 2900
F 0 "#PWR028" H 8950 2750 50  0001 C CNN
F 1 "VCC" H 8950 3100 50  0000 C CNN
F 2 "" H 8950 2900 50  0000 C CNN
F 3 "" H 8950 2900 50  0000 C CNN
	1    8950 2900
	1    0    0    -1  
$EndComp
$Comp
L VCC #PWR029
U 1 1 58093D5E
P 1250 3800
F 0 "#PWR029" H 1250 3650 50  0001 C CNN
F 1 "VCC" H 1250 3950 50  0000 C CNN
F 2 "" H 1250 3800 50  0000 C CNN
F 3 "" H 1250 3800 50  0000 C CNN
	1    1250 3800
	1    0    0    -1  
$EndComp
$Comp
L GND #PWR030
U 1 1 58095907
P 4250 2050
F 0 "#PWR030" H 4250 1800 50  0001 C CNN
F 1 "GND" H 4250 1900 50  0000 C CNN
F 2 "" H 4250 2050 50  0000 C CNN
F 3 "" H 4250 2050 50  0000 C CNN
	1    4250 2050
	1    0    0    -1  
$EndComp
$Comp
L +BATT #PWR031
U 1 1 58095D09
P 5350 650
F 0 "#PWR031" H 5350 500 50  0001 C CNN
F 1 "+BATT" V 5350 900 50  0000 C CNN
F 2 "" H 5350 650 50  0000 C CNN
F 3 "" H 5350 650 50  0000 C CNN
	1    5350 650 
	0    1    1    0   
$EndComp
$Comp
L R R2
U 1 1 5809640B
P 1000 6350
F 0 "R2" V 1080 6350 50  0000 C CNN
F 1 "10k" V 1000 6350 50  0000 C CNN
F 2 "Resistors_SMD:R_0805_HandSoldering" V 930 6350 50  0001 C CNN
F 3 "" H 1000 6350 50  0000 C CNN
	1    1000 6350
	0    1    1    0   
$EndComp
$Comp
L C_Small C14
U 1 1 5809D4F9
P 10650 2200
F 0 "C14" V 10700 2300 50  0000 L CNN
F 1 "100n" V 10700 1950 50  0000 L CNN
F 2 "Capacitors_SMD:C_0805_HandSoldering" H 10650 2200 50  0001 C CNN
F 3 "" H 10650 2200 50  0000 C CNN
	1    10650 2200
	0    -1   -1   0   
$EndComp
$Comp
L C_Small C15
U 1 1 5809F217
P 10650 2900
F 0 "C15" V 10700 3000 50  0000 L CNN
F 1 "100n" V 10700 2650 50  0000 L CNN
F 2 "Capacitors_SMD:C_0805_HandSoldering" H 10650 2900 50  0001 C CNN
F 3 "" H 10650 2900 50  0000 C CNN
	1    10650 2900
	0    -1   -1   0   
$EndComp
$Comp
L C_Small C16
U 1 1 5809F2B8
P 10650 3600
F 0 "C16" V 10700 3700 50  0000 L CNN
F 1 "100n" V 10700 3350 50  0000 L CNN
F 2 "Capacitors_SMD:C_0805_HandSoldering" H 10650 3600 50  0001 C CNN
F 3 "" H 10650 3600 50  0000 C CNN
	1    10650 3600
	0    -1   -1   0   
$EndComp
$Comp
L Q_PMOS_GSD Q2
U 1 1 580E63DE
P 4150 3800
F 0 "Q2" H 4450 3850 50  0000 R CNN
F 1 "BSS215P" H 4700 3750 50  0000 R CNN
F 2 "TO_SOT_Packages_SMD:SOT-23_Handsoldering" H 4350 3900 50  0001 C CNN
F 3 "" H 4150 3800 50  0000 C CNN
	1    4150 3800
	1    0    0    1   
$EndComp
$Comp
L VCC #PWR032
U 1 1 580E65B1
P 4250 3350
F 0 "#PWR032" H 4250 3200 50  0001 C CNN
F 1 "VCC" H 4250 3550 50  0000 C CNN
F 2 "" H 4250 3350 50  0000 C CNN
F 3 "" H 4250 3350 50  0000 C CNN
	1    4250 3350
	1    0    0    -1  
$EndComp
$Comp
L R R6
U 1 1 580E67D7
P 4250 4400
F 0 "R6" V 4330 4400 50  0000 C CNN
F 1 "1k" V 4250 4400 50  0000 C CNN
F 2 "Resistors_SMD:R_0805_HandSoldering" V 4180 4400 50  0001 C CNN
F 3 "" H 4250 4400 50  0000 C CNN
	1    4250 4400
	1    0    0    -1  
$EndComp
$Comp
L GND #PWR033
U 1 1 580E6866
P 4250 5200
F 0 "#PWR033" H 4250 4950 50  0001 C CNN
F 1 "GND" H 4250 5050 50  0000 C CNN
F 2 "" H 4250 5200 50  0000 C CNN
F 3 "" H 4250 5200 50  0000 C CNN
	1    4250 5200
	1    0    0    -1  
$EndComp
$Comp
L ATMEGA328P-A IC1
U 1 1 5785DAAB
P 2150 6000
F 0 "IC1" H 1400 7250 50  0000 L BNN
F 1 "ATMEGA328P-A" H 2550 4600 50  0000 L BNN
F 2 "Housings_QFP:TQFP-32_7x7mm_Pitch0.8mm" H 2150 6000 50  0001 C CIN
F 3 "" H 2150 6000 50  0000 C CNN
	1    2150 6000
	1    0    0    -1  
$EndComp
Connection ~ 2500 3900
Wire Wire Line
	2400 3900 2500 3900
Wire Wire Line
	2400 4650 2400 3900
Wire Wire Line
	1250 4650 2400 4650
Wire Wire Line
	1250 4650 1250 4900
Wire Wire Line
	1250 4150 1250 4250
Wire Wire Line
	2500 3800 2500 3950
Wire Wire Line
	2500 4150 2500 4350
Wire Wire Line
	2100 3800 2100 3950
Wire Wire Line
	2100 4150 2100 4350
Wire Wire Line
	1700 3800 1700 3950
Wire Wire Line
	1700 4150 1700 4350
Connection ~ 1150 7200
Wire Wire Line
	1150 7200 1250 7200
Connection ~ 1150 7100
Wire Wire Line
	1250 7100 1150 7100
Wire Wire Line
	1150 7000 1150 7300
Wire Wire Line
	1250 7000 1150 7000
Wire Wire Line
	7650 2500 8100 2500
Wire Wire Line
	7650 2400 8100 2400
Wire Wire Line
	3150 6600 3550 6600
Wire Wire Line
	3150 6500 3550 6500
Wire Wire Line
	10900 1200 10800 1200
Wire Wire Line
	10900 1300 10900 1200
Wire Wire Line
	10900 1000 10900 900 
Wire Wire Line
	10800 1000 10900 1000
Wire Wire Line
	10800 1100 11050 1100
Wire Wire Line
	9950 1200 9650 1200
Wire Wire Line
	9950 1100 9650 1100
Wire Wire Line
	9950 1000 9650 1000
Wire Wire Line
	3150 5400 3550 5400
Wire Wire Line
	3150 5300 3550 5300
Wire Wire Line
	3150 5200 3550 5200
Wire Wire Line
	3150 6350 5400 6350
Wire Wire Line
	3150 6050 4100 6050
Wire Wire Line
	3150 5950 4100 5950
Wire Wire Line
	3150 5850 4100 5850
Wire Wire Line
	3150 5750 4100 5750
Wire Wire Line
	3150 7000 4100 7000
Wire Wire Line
	3150 6900 4100 6900
Wire Wire Line
	3150 6800 4100 6800
Wire Wire Line
	3150 6700 4100 6700
Connection ~ 6150 5600
Wire Wire Line
	5850 5600 6150 5600
Wire Wire Line
	6150 5200 6150 5750
Wire Wire Line
	5850 5200 6150 5200
Connection ~ 5450 5600
Connection ~ 5450 5200
Wire Wire Line
	5450 5600 5450 5500
Wire Wire Line
	3150 5600 5650 5600
Wire Wire Line
	5450 5200 5450 5300
Wire Wire Line
	5200 5200 5650 5200
Wire Wire Line
	5200 5500 5200 5200
Wire Wire Line
	3150 5500 5200 5500
Wire Wire Line
	10650 3250 10550 3250
Wire Wire Line
	10650 2550 10550 2550
Wire Wire Line
	10550 1850 10650 1850
Wire Wire Line
	11050 3250 10950 3250
Wire Wire Line
	11050 2550 10950 2550
Wire Wire Line
	10950 1850 11050 1850
Connection ~ 11050 3250
Connection ~ 11050 2550
Wire Wire Line
	11050 1850 11050 4050
Wire Wire Line
	1250 5000 1150 5000
Wire Wire Line
	1150 5000 1150 4600
Wire Wire Line
	1150 4600 2000 4600
Wire Wire Line
	2000 4600 2000 3900
Wire Wire Line
	2000 3900 2100 3900
Connection ~ 2100 3900
Wire Wire Line
	1050 5200 1250 5200
Connection ~ 1700 3900
Wire Wire Line
	5200 5900 5200 6000
Wire Wire Line
	5200 6300 5200 6400
Wire Wire Line
	5200 6600 5200 6700
Connection ~ 5200 6350
Wire Wire Line
	7050 4100 7050 4400
Wire Wire Line
	6650 4100 6650 4200
Wire Wire Line
	6650 4200 7050 4200
Connection ~ 7050 4200
Wire Wire Line
	6750 4100 6750 4200
Connection ~ 6750 4200
Wire Wire Line
	6850 4100 6850 4200
Connection ~ 6850 4200
Wire Wire Line
	6950 4100 6950 4200
Connection ~ 6950 4200
Wire Wire Line
	6050 3600 5900 3600
Wire Wire Line
	5900 3600 5900 3700
Wire Wire Line
	5900 3900 5900 4000
Wire Wire Line
	1400 2600 6050 2600
Wire Wire Line
	1400 2700 6050 2700
Wire Wire Line
	1000 3100 1750 3100
Wire Wire Line
	1400 2900 1400 3150
Connection ~ 1400 3100
Wire Wire Line
	3500 2050 3500 1950
Wire Wire Line
	3500 1550 3500 1650
Wire Wire Line
	3500 850  3500 1150
Wire Wire Line
	700  1350 3200 1350
Wire Wire Line
	700  850  700  2400
Wire Wire Line
	900  2100 900  1950
Wire Wire Line
	900  1650 900  1350
Wire Wire Line
	700  850  850  850 
Wire Wire Line
	1050 850  5350 850 
Wire Wire Line
	5000 850  5000 1400
Connection ~ 3500 850 
Wire Wire Line
	5000 1700 5000 1850
Wire Wire Line
	6050 2400 5850 2400
Wire Notes Line
	500  2350 5800 2350
Wire Notes Line
	5800 2350 5800 500 
Wire Notes Line
	5800 500  500  500 
Wire Notes Line
	500  500  500  2350
Connection ~ 700  1350
Wire Wire Line
	1750 2500 1750 2800
Connection ~ 1750 2500
Wire Wire Line
	1750 3100 1750 3000
Wire Wire Line
	1500 2500 1500 2400
Wire Wire Line
	1500 2400 700  2400
Connection ~ 1500 2500
Wire Wire Line
	3150 4900 3550 4900
Wire Wire Line
	3150 5000 3550 5000
Wire Wire Line
	3150 7200 3700 7200
Wire Wire Line
	7650 3200 8050 3200
Wire Wire Line
	7650 3300 7950 3300
Wire Wire Line
	7950 3300 7950 3600
Wire Wire Line
	7950 3600 8050 3600
Wire Wire Line
	8350 3200 8550 3200
Wire Wire Line
	8350 3600 8550 3600
Wire Wire Line
	8950 3600 8750 3600
Wire Wire Line
	8950 2900 8950 3600
Wire Wire Line
	8750 3200 8950 3200
Connection ~ 8950 3200
Wire Wire Line
	3150 7100 3700 7100
Wire Wire Line
	3800 2500 3800 3000
Connection ~ 3800 2500
Connection ~ 5000 850 
Wire Wire Line
	2200 1600 4250 1600
Connection ~ 3500 1600
Wire Wire Line
	3800 3300 3800 3400
Wire Wire Line
	1250 5500 950  5500
Wire Wire Line
	1250 3800 1250 3950
Wire Wire Line
	1400 2500 6050 2500
Wire Wire Line
	5850 2400 5850 2500
Connection ~ 5850 2500
Wire Wire Line
	1050 5200 1050 4550
Wire Wire Line
	1050 4550 1550 4550
Wire Wire Line
	1550 4550 1550 3900
Wire Wire Line
	1550 3900 1700 3900
Wire Wire Line
	950  5500 950  3900
Wire Wire Line
	950  3900 1250 3900
Connection ~ 1250 3900
Wire Wire Line
	4250 650  4250 1700
Wire Wire Line
	4250 2050 4250 1900
Wire Wire Line
	4250 650  5350 650 
Connection ~ 4250 1600
Wire Wire Line
	700  6200 700  6450
Wire Wire Line
	700  6350 850  6350
Connection ~ 700  6350
Wire Wire Line
	700  6650 700  6800
Wire Wire Line
	1250 6350 1150 6350
Wire Wire Line
	9800 2200 10550 2200
Wire Wire Line
	10750 2200 11050 2200
Connection ~ 11050 2200
Wire Wire Line
	9400 1850 9950 1850
Wire Wire Line
	9400 2550 9950 2550
Wire Wire Line
	9400 3250 9950 3250
Wire Wire Line
	9800 2900 10550 2900
Wire Wire Line
	10750 2900 11050 2900
Connection ~ 11050 2900
Wire Wire Line
	10550 3600 9800 3600
Wire Wire Line
	10750 3600 11050 3600
Connection ~ 11050 3600
Wire Wire Line
	9800 3600 9800 3250
Connection ~ 9800 3250
Wire Wire Line
	9800 2900 9800 2550
Connection ~ 9800 2550
Wire Wire Line
	9800 1850 9800 2200
Connection ~ 9800 1850
Wire Wire Line
	3150 5100 3800 5100
Wire Wire Line
	3800 3800 3950 3800
Wire Wire Line
	4250 3350 4250 3600
NoConn ~ 3150 6250
$Comp
L MCP73831/2 U1
U 1 1 580E826F
P 1750 1800
F 0 "U1" H 1600 2150 60  0000 C CNN
F 1 "MCP73831/2" H 1750 1450 60  0000 C CNN
F 2 "TO_SOT_Packages_SMD:SOT-23-5" H 1500 1900 60  0001 C CNN
F 3 "" H 1500 1900 60  0001 C CNN
	1    1750 1800
	1    0    0    -1  
$EndComp
Wire Wire Line
	1300 1600 1200 1600
Connection ~ 1200 1350
Connection ~ 900  1350
$Comp
L C_Small C7
U 1 1 580E8E62
P 3050 1750
F 0 "C7" H 2850 1700 50  0000 L CNN
F 1 "4.7u" H 2850 1850 50  0000 L CNN
F 2 "Capacitors_SMD:C_0805_HandSoldering" H 3050 1750 50  0001 C CNN
F 3 "" H 3050 1750 50  0000 C CNN
	1    3050 1750
	-1   0    0    1   
$EndComp
Wire Wire Line
	3050 1600 3050 1650
$Comp
L GND #PWR034
U 1 1 580E90DF
P 3050 2050
F 0 "#PWR034" H 3050 1800 50  0001 C CNN
F 1 "GND" H 3050 1900 50  0000 C CNN
F 2 "" H 3050 2050 50  0000 C CNN
F 3 "" H 3050 2050 50  0000 C CNN
	1    3050 2050
	1    0    0    -1  
$EndComp
Wire Wire Line
	3050 1850 3050 2050
Connection ~ 3050 1600
$Comp
L GND #PWR035
U 1 1 580E9436
P 2250 2050
F 0 "#PWR035" H 2250 1800 50  0001 C CNN
F 1 "GND" H 2250 1900 50  0000 C CNN
F 2 "" H 2250 2050 50  0000 C CNN
F 3 "" H 2250 2050 50  0000 C CNN
	1    2250 2050
	1    0    0    -1  
$EndComp
Wire Wire Line
	2200 2000 2250 2000
Wire Wire Line
	2250 2000 2250 2050
Wire Wire Line
	1200 2000 1300 2000
Text Label 1200 2300 0    60   ~ 0
BAT_STAT
Wire Wire Line
	1200 2300 1600 2300
Wire Wire Line
	3150 6150 3750 6150
Text Label 3350 6150 0    60   ~ 0
BAT_STAT
Wire Wire Line
	1200 2000 1200 2300
Wire Wire Line
	1200 1600 1200 1350
$Comp
L R R3
U 1 1 580EC6AF
P 2450 1800
F 0 "R3" V 2530 1800 50  0000 C CNN
F 1 "2k" V 2450 1800 50  0000 C CNN
F 2 "Resistors_SMD:R_0805_HandSoldering" V 2380 1800 50  0001 C CNN
F 3 "" H 2450 1800 50  0000 C CNN
	1    2450 1800
	0    1    1    0   
$EndComp
Wire Wire Line
	2200 1800 2300 1800
Wire Wire Line
	2600 1800 2700 1800
Wire Wire Line
	2700 1800 2700 2050
$Comp
L GND #PWR036
U 1 1 580ECA5D
P 2700 2050
F 0 "#PWR036" H 2700 1800 50  0001 C CNN
F 1 "GND" H 2700 1900 50  0000 C CNN
F 2 "" H 2700 2050 50  0000 C CNN
F 3 "" H 2700 2050 50  0000 C CNN
	1    2700 2050
	1    0    0    -1  
$EndComp
$Comp
L R R5
U 1 1 580EE6D5
P 3800 4400
F 0 "R5" V 3880 4400 50  0000 C CNN
F 1 "4k7" V 3800 4400 50  0000 C CNN
F 2 "Resistors_SMD:R_0805_HandSoldering" V 3730 4400 50  0001 C CNN
F 3 "" H 3800 4400 50  0000 C CNN
	1    3800 4400
	1    0    0    -1  
$EndComp
Wire Wire Line
	3800 3800 3800 4250
Wire Wire Line
	3800 5100 3800 4550
$Comp
L SPEAKER SP1
U 1 1 580E6732
P 4900 4400
F 0 "SP1" H 4800 4650 50  0000 C CNN
F 1 "CPT-9019S-SMT" H 4850 4050 50  0000 C CNN
F 2 "simon:CPT-9019S-SMT" H 4900 4400 50  0001 C CNN
F 3 "" H 4900 4400 50  0000 C CNN
	1    4900 4400
	1    0    0    -1  
$EndComp
Wire Wire Line
	4250 4000 4250 4250
Wire Wire Line
	4250 4550 4250 5200
Wire Wire Line
	4600 4300 4600 4150
Wire Wire Line
	4600 4150 4250 4150
Connection ~ 4250 4150
Wire Wire Line
	4600 4500 4600 4650
Wire Wire Line
	4600 4650 4250 4650
Connection ~ 4250 4650
$Comp
L CP1_Small C8
U 1 1 581F0B0E
P 4250 1800
F 0 "C8" H 4260 1870 50  0000 L CNN
F 1 "1000uF" H 4260 1720 50  0000 L CNN
F 2 "Capacitors_ThroughHole:C_Radial_D10_L13_P5" H 4250 1800 50  0001 C CNN
F 3 "" H 4250 1800 50  0000 C CNN
	1    4250 1800
	1    0    0    -1  
$EndComp
$Comp
L GND #PWR037
U 1 1 58EA2F2E
P 3800 3400
F 0 "#PWR037" H 3800 3150 50  0001 C CNN
F 1 "GND" H 3800 3250 50  0000 C CNN
F 2 "" H 3800 3400 50  0000 C CNN
F 3 "" H 3800 3400 50  0000 C CNN
	1    3800 3400
	1    0    0    -1  
$EndComp
Wire Wire Line
	3600 2900 3800 2900
Connection ~ 3800 2900
$Comp
L R R?
U 1 1 58EA47E9
P 3450 2900
F 0 "R?" V 3530 2900 50  0000 C CNN
F 1 "4k7" V 3450 2900 50  0000 C CNN
F 2 "Resistors_SMD:R_0805_HandSoldering" V 3380 2900 50  0001 C CNN
F 3 "" H 3450 2900 50  0000 C CNN
	1    3450 2900
	0    1    -1   0   
$EndComp
Wire Wire Line
	2700 2900 3300 2900
$EndSCHEMATC
