G04 #@! TF.FileFunction,Copper,L1,Top,Signal*
%FSLAX46Y46*%
G04 Gerber Fmt 4.6, Leading zero omitted, Abs format (unit mm)*
G04 Created by KiCad (PCBNEW 4.0.5) date 2017 March 06, Monday 21:59:54*
%MOMM*%
%LPD*%
G01*
G04 APERTURE LIST*
%ADD10C,0.100000*%
%ADD11R,1.250000X1.500000*%
%ADD12R,0.700000X0.600000*%
%ADD13R,0.797560X0.797560*%
%ADD14R,1.600000X0.550000*%
%ADD15R,0.550000X1.600000*%
%ADD16R,1.300000X1.500000*%
%ADD17R,1.500000X1.300000*%
%ADD18R,0.800100X1.800860*%
%ADD19R,1.060000X0.650000*%
%ADD20R,1.750000X0.450000*%
%ADD21R,1.900000X1.900000*%
%ADD22R,1.350000X0.400000*%
%ADD23R,1.300000X1.900000*%
%ADD24R,1.400000X2.100000*%
%ADD25R,2.600000X2.000000*%
%ADD26O,2.600000X2.000000*%
%ADD27R,1.727200X1.727200*%
%ADD28O,1.727200X1.727200*%
%ADD29R,4.200000X3.000000*%
%ADD30R,1.300000X1.300000*%
%ADD31C,1.300000*%
%ADD32R,1.500000X0.450000*%
%ADD33C,0.600000*%
%ADD34C,0.254000*%
%ADD35C,0.508000*%
G04 APERTURE END LIST*
D10*
D11*
X93345000Y-72390000D03*
X93345000Y-69890000D03*
X127000000Y-76200000D03*
X127000000Y-78700000D03*
X127000000Y-41235000D03*
X127000000Y-38735000D03*
X119380000Y-43220000D03*
X119380000Y-45720000D03*
X116205000Y-83185000D03*
X116205000Y-85685000D03*
X73660000Y-85725000D03*
X73660000Y-83225000D03*
D12*
X119380000Y-37970000D03*
X119380000Y-39370000D03*
D13*
X121513600Y-75565000D03*
X120015000Y-75565000D03*
X121513600Y-78740000D03*
X120015000Y-78740000D03*
D14*
X76200000Y-70460000D03*
X76200000Y-71260000D03*
X76200000Y-72060000D03*
X76200000Y-72860000D03*
X76200000Y-73660000D03*
X76200000Y-74460000D03*
X76200000Y-75260000D03*
X76200000Y-76060000D03*
D15*
X77650000Y-77510000D03*
X78450000Y-77510000D03*
X79250000Y-77510000D03*
X80050000Y-77510000D03*
X80850000Y-77510000D03*
X81650000Y-77510000D03*
X82450000Y-77510000D03*
X83250000Y-77510000D03*
D14*
X84700000Y-76060000D03*
X84700000Y-75260000D03*
X84700000Y-74460000D03*
X84700000Y-73660000D03*
X84700000Y-72860000D03*
X84700000Y-72060000D03*
X84700000Y-71260000D03*
X84700000Y-70460000D03*
D15*
X83250000Y-69010000D03*
X82450000Y-69010000D03*
X81650000Y-69010000D03*
X80850000Y-69010000D03*
X80050000Y-69010000D03*
X79250000Y-69010000D03*
X78450000Y-69010000D03*
X77650000Y-69010000D03*
D16*
X102235000Y-41529000D03*
X102235000Y-38829000D03*
X95250000Y-41529000D03*
X95250000Y-38829000D03*
X88265000Y-41529000D03*
X88265000Y-38829000D03*
X81280000Y-41689000D03*
X81280000Y-38989000D03*
X74295000Y-41689000D03*
X74295000Y-38989000D03*
X98425000Y-64295000D03*
X98425000Y-61595000D03*
X95250000Y-64295000D03*
X95250000Y-61595000D03*
X92075000Y-64295000D03*
X92075000Y-61595000D03*
X88900000Y-64295000D03*
X88900000Y-61595000D03*
X116840000Y-38575000D03*
X116840000Y-41275000D03*
X90170000Y-72390000D03*
X90170000Y-69690000D03*
X122555000Y-45720000D03*
X122555000Y-43020000D03*
X80645000Y-83025000D03*
X80645000Y-85725000D03*
X99695000Y-48735000D03*
X99695000Y-51435000D03*
X118745000Y-49370000D03*
X118745000Y-52070000D03*
X113030000Y-85885000D03*
X113030000Y-83185000D03*
D17*
X117000000Y-75565000D03*
X114300000Y-75565000D03*
X117000000Y-78740000D03*
X114300000Y-78740000D03*
D16*
X67310000Y-58420000D03*
X67310000Y-55720000D03*
X67310000Y-44450000D03*
X67310000Y-41750000D03*
X67310000Y-71915000D03*
X67310000Y-69215000D03*
D18*
X106675000Y-38989000D03*
X104775000Y-38989000D03*
X105725000Y-41991280D03*
X92705000Y-38989000D03*
X90805000Y-38989000D03*
X91755000Y-41991280D03*
X78735000Y-38989000D03*
X76835000Y-38989000D03*
X77785000Y-41991280D03*
X113980000Y-38735000D03*
X112080000Y-38735000D03*
X113030000Y-41737280D03*
D19*
X121920000Y-38105000D03*
X121920000Y-39055000D03*
X121920000Y-40005000D03*
X124120000Y-40005000D03*
X124120000Y-38105000D03*
D20*
X99480000Y-70634000D03*
X99480000Y-71284000D03*
X99480000Y-71934000D03*
X99480000Y-72584000D03*
X99480000Y-73234000D03*
X99480000Y-73884000D03*
X99480000Y-74534000D03*
X99480000Y-75184000D03*
X99480000Y-75834000D03*
X99480000Y-76484000D03*
X99480000Y-77134000D03*
X99480000Y-77784000D03*
X99480000Y-78434000D03*
X99480000Y-79084000D03*
X106680000Y-79084000D03*
X106680000Y-78434000D03*
X106680000Y-77784000D03*
X106680000Y-77134000D03*
X106680000Y-76484000D03*
X106680000Y-75834000D03*
X106680000Y-75184000D03*
X106680000Y-74534000D03*
X106680000Y-73884000D03*
X106680000Y-73234000D03*
X106680000Y-72584000D03*
X106680000Y-71934000D03*
X106680000Y-71284000D03*
X106680000Y-70634000D03*
D18*
X99690000Y-38989000D03*
X97790000Y-38989000D03*
X98740000Y-41991280D03*
X85720000Y-38989000D03*
X83820000Y-38989000D03*
X84770000Y-41991280D03*
X71882000Y-38989000D03*
X69982000Y-38989000D03*
X70932000Y-41991280D03*
X104770000Y-48895000D03*
X102870000Y-48895000D03*
X103820000Y-51897280D03*
D21*
X133096000Y-78584000D03*
X133096000Y-70484000D03*
X133096000Y-75734000D03*
D22*
X130421000Y-75834000D03*
X130421000Y-73884000D03*
X130421000Y-74534000D03*
X130421000Y-75184000D03*
X130421000Y-73234000D03*
D21*
X133096000Y-73334000D03*
D23*
X64008000Y-85598000D03*
X64008000Y-82398000D03*
X69508000Y-82398000D03*
X69508000Y-85598000D03*
D24*
X63500000Y-55880000D03*
X63500000Y-64980000D03*
X59000000Y-64980000D03*
X59000000Y-55880000D03*
X63500000Y-41910000D03*
X63500000Y-51010000D03*
X59000000Y-51010000D03*
X59000000Y-41910000D03*
X63500000Y-69005000D03*
X63500000Y-78105000D03*
X59000000Y-78105000D03*
X59000000Y-69005000D03*
D25*
X128905000Y-46990000D03*
D26*
X128905000Y-49530000D03*
D27*
X125476000Y-83185000D03*
D28*
X125476000Y-85725000D03*
X122936000Y-83185000D03*
X122936000Y-85725000D03*
X120396000Y-83185000D03*
X120396000Y-85725000D03*
D11*
X76835000Y-84455000D03*
X76835000Y-81955000D03*
X110490000Y-78720000D03*
X110490000Y-76220000D03*
X67310000Y-65365000D03*
X67310000Y-62865000D03*
X67310000Y-51395000D03*
X67310000Y-48895000D03*
X67310000Y-78700000D03*
X67310000Y-76200000D03*
D16*
X109220000Y-41529000D03*
X109220000Y-38829000D03*
D29*
X111760000Y-49420000D03*
X111760000Y-58420000D03*
D30*
X129540000Y-55880000D03*
D31*
X129540000Y-60880000D03*
D32*
X77180000Y-50180000D03*
X77180000Y-50830000D03*
X77180000Y-51480000D03*
X77180000Y-52130000D03*
X77180000Y-52780000D03*
X77180000Y-53430000D03*
X77180000Y-54080000D03*
X77180000Y-54730000D03*
X83080000Y-54730000D03*
X83080000Y-54080000D03*
X83080000Y-53430000D03*
X83080000Y-52780000D03*
X83080000Y-52130000D03*
X83080000Y-51480000D03*
X83080000Y-50830000D03*
X83080000Y-50180000D03*
D33*
X73610000Y-53180000D03*
X73660000Y-51220000D03*
X86750000Y-55350000D03*
X75463364Y-51466636D03*
X74549000Y-55220000D03*
X74015743Y-72024558D03*
X72745000Y-73091333D03*
X68101989Y-50080000D03*
X68383258Y-60775211D03*
X68804979Y-63070000D03*
X68060000Y-73660000D03*
X121631979Y-53470000D03*
X120938019Y-39310000D03*
X70360000Y-45810000D03*
X95112990Y-71776538D03*
X124030000Y-52010000D03*
X87642990Y-73070000D03*
X111803889Y-74900558D03*
X78330000Y-83630000D03*
X104810000Y-77500000D03*
X108390000Y-72440000D03*
X109690000Y-71950000D03*
X96886992Y-74556990D03*
X68820000Y-75670000D03*
X118180000Y-41850000D03*
X115280000Y-61470000D03*
X124540000Y-45440000D03*
X128860000Y-73680000D03*
X129590000Y-78650000D03*
X126190000Y-43230000D03*
X85930000Y-48740000D03*
X73959109Y-72822563D03*
X126130002Y-81080000D03*
X122840000Y-78980000D03*
X86820000Y-75480000D03*
X73916677Y-74783690D03*
X86750000Y-73650000D03*
X83674897Y-80008169D03*
X81376310Y-74878936D03*
X72180000Y-65090000D03*
X70158021Y-65840000D03*
X111927010Y-65330000D03*
X118750000Y-65860000D03*
X87715788Y-66907025D03*
X100360000Y-65560000D03*
X93480000Y-76480000D03*
X97660000Y-59283054D03*
X108070000Y-46340000D03*
X117230000Y-46940000D03*
X112560864Y-73039136D03*
X111300000Y-62020000D03*
X112020000Y-67790000D03*
X101040000Y-44090000D03*
X73600000Y-50190000D03*
X74480000Y-70400000D03*
X74035212Y-71224783D03*
X73630000Y-52180000D03*
X72880000Y-66290000D03*
X77290000Y-79300000D03*
X77646820Y-70739284D03*
X79459185Y-79375411D03*
X63287010Y-67000000D03*
X59940000Y-67000000D03*
X80227331Y-79598951D03*
X78662145Y-79306519D03*
X61620000Y-80630000D03*
X59521977Y-80080524D03*
X81600406Y-80397134D03*
X83310000Y-79070000D03*
X86831636Y-76558364D03*
X86620000Y-72060000D03*
X87188979Y-70565783D03*
X86932069Y-69808144D03*
X83486636Y-67163364D03*
X82739187Y-66770828D03*
X81769556Y-65443780D03*
X97613386Y-70211057D03*
X97639460Y-73211010D03*
X81168649Y-64915642D03*
X73640000Y-49200000D03*
X77450000Y-67160000D03*
X108340000Y-79820000D03*
X108411462Y-78715191D03*
X94120000Y-80459367D03*
X126780000Y-59850000D03*
X126040000Y-72490000D03*
X125510000Y-76980000D03*
X96730000Y-86490000D03*
X80865134Y-80081867D03*
X77980000Y-66430000D03*
X78670000Y-71300000D03*
X104518023Y-60359620D03*
X102810000Y-59950000D03*
X82379504Y-66056232D03*
X122019967Y-52263328D03*
X123330000Y-37130000D03*
X108860000Y-75840000D03*
X93525669Y-79578941D03*
X104700000Y-72900000D03*
X101160000Y-72560000D03*
X96920000Y-72600000D03*
X82390000Y-86190000D03*
X74050066Y-75716633D03*
X74100000Y-76600000D03*
X108080146Y-77987010D03*
X120540000Y-65900000D03*
X120330000Y-59270000D03*
X107780000Y-43020000D03*
X96040000Y-59283054D03*
X71110000Y-55840000D03*
X96530000Y-55070000D03*
X95000000Y-54320000D03*
X118400000Y-55600000D03*
X74500000Y-57810000D03*
X85890000Y-56450000D03*
X87990000Y-56350000D03*
X99720000Y-55540000D03*
X106890000Y-55580000D03*
X101769881Y-60262300D03*
X103172990Y-66610000D03*
X103559398Y-69509398D03*
X101880000Y-76260000D03*
X93440000Y-44320000D03*
X89460000Y-44680000D03*
X91750000Y-70410000D03*
X91350000Y-76100000D03*
X90490000Y-64660959D03*
X90600000Y-60600000D03*
X81206368Y-59221720D03*
X80234859Y-64034740D03*
X80450000Y-45917010D03*
X70499489Y-72660511D03*
X70190000Y-59390000D03*
X69704010Y-69360000D03*
X72630000Y-47137019D03*
X108484083Y-73691977D03*
X109301155Y-74191861D03*
X86850000Y-50200000D03*
X86870000Y-51080000D03*
X86910000Y-52030000D03*
X86860000Y-52830000D03*
X86830000Y-53630000D03*
X86780000Y-54490000D03*
D34*
X77180000Y-54080000D02*
X74510000Y-54080000D01*
X74510000Y-54080000D02*
X73610000Y-53180000D01*
X73660000Y-51220000D02*
X75220000Y-52780000D01*
X75220000Y-52780000D02*
X77180000Y-52780000D01*
X83080000Y-54730000D02*
X86130000Y-54730000D01*
X86130000Y-54730000D02*
X86750000Y-55350000D01*
X77180000Y-52130000D02*
X76126728Y-52130000D01*
X75763363Y-51766635D02*
X75463364Y-51466636D01*
X76126728Y-52130000D02*
X75763363Y-51766635D01*
X75039000Y-54730000D02*
X74549000Y-55220000D01*
X77180000Y-54730000D02*
X75039000Y-54730000D01*
X107809000Y-75184000D02*
X106680000Y-75184000D01*
X109160962Y-74802998D02*
X108190002Y-74802998D01*
X110490000Y-76095000D02*
X110452964Y-76095000D01*
X108190002Y-74802998D02*
X107809000Y-75184000D01*
X110452964Y-76095000D02*
X109160962Y-74802998D01*
D35*
X74051185Y-72060000D02*
X74015743Y-72024558D01*
X76200000Y-72060000D02*
X74051185Y-72060000D01*
D34*
X76200000Y-73660000D02*
X73313667Y-73660000D01*
X73044999Y-73391332D02*
X72745000Y-73091333D01*
X73313667Y-73660000D02*
X73044999Y-73391332D01*
X67310000Y-49899000D02*
X67491000Y-50080000D01*
X67677725Y-50080000D02*
X68101989Y-50080000D01*
X67310000Y-48895000D02*
X67310000Y-49899000D01*
X67491000Y-50080000D02*
X67677725Y-50080000D01*
X67310000Y-58420000D02*
X67310000Y-59701953D01*
X68083259Y-60475212D02*
X68383258Y-60775211D01*
X67310000Y-59701953D02*
X68083259Y-60475212D01*
X67310000Y-62865000D02*
X68599979Y-62865000D01*
X68599979Y-62865000D02*
X68804979Y-63070000D01*
X67310000Y-72919000D02*
X68051000Y-73660000D01*
X68051000Y-73660000D02*
X68060000Y-73660000D01*
X67310000Y-71915000D02*
X67310000Y-72919000D01*
D35*
X121331980Y-53170001D02*
X121631979Y-53470000D01*
X120231979Y-52070000D02*
X121331980Y-53170001D01*
X118745000Y-52070000D02*
X120231979Y-52070000D01*
D34*
X121920000Y-39055000D02*
X121136000Y-39055000D01*
X121136000Y-39055000D02*
X120938019Y-39252981D01*
X120938019Y-39252981D02*
X120938019Y-39310000D01*
D35*
X128905000Y-49530000D02*
X130280000Y-49530000D01*
X130280000Y-49530000D02*
X130960000Y-50210000D01*
X130960000Y-50210000D02*
X130940000Y-50230000D01*
X130940000Y-50230000D02*
X130940000Y-57150000D01*
X130940000Y-57150000D02*
X129550000Y-58540000D01*
X129550000Y-58540000D02*
X129550000Y-60870000D01*
X129550000Y-60870000D02*
X129540000Y-60880000D01*
D34*
X70060001Y-45510001D02*
X70360000Y-45810000D01*
X69000000Y-44450000D02*
X70060001Y-45510001D01*
X67310000Y-44450000D02*
X69000000Y-44450000D01*
X94812991Y-72076537D02*
X95112990Y-71776538D01*
X94499528Y-72390000D02*
X94812991Y-72076537D01*
X93345000Y-72390000D02*
X94499528Y-72390000D01*
D35*
X123770000Y-50235000D02*
X123770000Y-51750000D01*
X123770000Y-51750000D02*
X124030000Y-52010000D01*
X119380000Y-45845000D02*
X123770000Y-50235000D01*
X119380000Y-45720000D02*
X119380000Y-45845000D01*
D34*
X87432990Y-72860000D02*
X87642990Y-73070000D01*
X84700000Y-72860000D02*
X87432990Y-72860000D01*
X110490000Y-76220000D02*
X110490000Y-76095000D01*
X111503890Y-75200557D02*
X111803889Y-74900558D01*
X110490000Y-76095000D02*
X110609447Y-76095000D01*
X110609447Y-76095000D02*
X111503890Y-75200557D01*
X76835000Y-84455000D02*
X77505000Y-84455000D01*
X77505000Y-84455000D02*
X78330000Y-83630000D01*
X106680000Y-77134000D02*
X105176000Y-77134000D01*
X105176000Y-77134000D02*
X104810000Y-77500000D01*
X106680000Y-72584000D02*
X108246000Y-72584000D01*
X108246000Y-72584000D02*
X108390000Y-72440000D01*
X109674000Y-71934000D02*
X109690000Y-71950000D01*
X106680000Y-71934000D02*
X109674000Y-71934000D01*
X96909982Y-74534000D02*
X96886992Y-74556990D01*
X99480000Y-74534000D02*
X96909982Y-74534000D01*
X67310000Y-76200000D02*
X68290000Y-76200000D01*
X68290000Y-76200000D02*
X68820000Y-75670000D01*
D35*
X118180000Y-42274264D02*
X118180000Y-41850000D01*
X118180000Y-44395000D02*
X118180000Y-42274264D01*
X119380000Y-45595000D02*
X118180000Y-44395000D01*
X118180000Y-41457000D02*
X118180000Y-41850000D01*
X116840000Y-41275000D02*
X117998000Y-41275000D01*
X119380000Y-45720000D02*
X119380000Y-45595000D01*
X117998000Y-41275000D02*
X118180000Y-41457000D01*
D34*
X73660000Y-85725000D02*
X74635000Y-85725000D01*
X74635000Y-85725000D02*
X75905000Y-84455000D01*
X75905000Y-84455000D02*
X76835000Y-84455000D01*
X111760000Y-58420000D02*
X111760000Y-60340000D01*
X111760000Y-60340000D02*
X112890000Y-61470000D01*
X112890000Y-61470000D02*
X115280000Y-61470000D01*
D35*
X133096000Y-69026000D02*
X133096000Y-70484000D01*
X129540000Y-60880000D02*
X133096000Y-64436000D01*
X133096000Y-64436000D02*
X133096000Y-69026000D01*
X122555000Y-45720000D02*
X124260000Y-45720000D01*
X124260000Y-45720000D02*
X124540000Y-45440000D01*
D34*
X130421000Y-73234000D02*
X129306000Y-73234000D01*
X129306000Y-73234000D02*
X128860000Y-73680000D01*
D35*
X133096000Y-78584000D02*
X129656000Y-78584000D01*
X127000000Y-78700000D02*
X129540000Y-78700000D01*
X129656000Y-78584000D02*
X129590000Y-78650000D01*
X129540000Y-78700000D02*
X129590000Y-78650000D01*
X133096000Y-75734000D02*
X133096000Y-78584000D01*
X133096000Y-73334000D02*
X133096000Y-75734000D01*
X133096000Y-70484000D02*
X133096000Y-73334000D01*
D34*
X116205000Y-85685000D02*
X120356000Y-85685000D01*
X120356000Y-85685000D02*
X120396000Y-85725000D01*
X126190000Y-43230000D02*
X126614264Y-43230000D01*
X126614264Y-43230000D02*
X127000000Y-42844264D01*
X127000000Y-42844264D02*
X127000000Y-42239000D01*
X127000000Y-42239000D02*
X127000000Y-41235000D01*
D35*
X83109001Y-50150999D02*
X83109001Y-49420999D01*
X83109001Y-49420999D02*
X83790000Y-48740000D01*
X83790000Y-48740000D02*
X85505736Y-48740000D01*
X85505736Y-48740000D02*
X85930000Y-48740000D01*
X93050000Y-48740000D02*
X86354264Y-48740000D01*
X94303430Y-47486570D02*
X93050000Y-48740000D01*
X100553520Y-47486570D02*
X94303430Y-47486570D01*
X102870000Y-48895000D02*
X101961950Y-48895000D01*
X101961950Y-48895000D02*
X100553520Y-47486570D01*
X86354264Y-48740000D02*
X85930000Y-48740000D01*
X68950000Y-72226944D02*
X70213056Y-73490000D01*
X68950000Y-65220363D02*
X68950000Y-72226944D01*
X69558989Y-64611374D02*
X68950000Y-65220363D01*
X70213056Y-73490000D02*
X71240000Y-73490000D01*
X69982000Y-44316076D02*
X71114002Y-45448078D01*
X68855999Y-49029782D02*
X68855999Y-59505999D01*
X71114002Y-46771779D02*
X68855999Y-49029782D01*
X69558989Y-60208989D02*
X69558989Y-64611374D01*
X71114002Y-45448078D02*
X71114002Y-46771779D01*
X68855999Y-59505999D02*
X69558989Y-60208989D01*
X69982000Y-38989000D02*
X69982000Y-44316076D01*
X76200000Y-72860000D02*
X73996546Y-72860000D01*
X72490000Y-72280000D02*
X73000000Y-72280000D01*
X73000000Y-72280000D02*
X73542563Y-72822563D01*
X73542563Y-72822563D02*
X73959109Y-72822563D01*
X73996546Y-72860000D02*
X73959109Y-72822563D01*
X71960000Y-72810000D02*
X72490000Y-72280000D01*
X71960000Y-74380000D02*
X71960000Y-74000000D01*
X71240000Y-73490000D02*
X71450000Y-73490000D01*
X71960000Y-74000000D02*
X71960000Y-73490000D01*
X71450000Y-73490000D02*
X71960000Y-74000000D01*
X71240000Y-73490000D02*
X71960000Y-73490000D01*
X71240000Y-73490000D02*
X71280000Y-73490000D01*
X71280000Y-73490000D02*
X71960000Y-72810000D01*
X71960000Y-73490000D02*
X71960000Y-72810000D01*
X121513600Y-55386037D02*
X122840000Y-54059637D01*
X122840000Y-51372202D02*
X117207798Y-45740000D01*
X122840000Y-54059637D02*
X122840000Y-51372202D01*
X121513600Y-75565000D02*
X121513600Y-55386037D01*
X117207798Y-45740000D02*
X110990000Y-45740000D01*
D34*
X92006377Y-81086377D02*
X125699361Y-81086377D01*
X87540000Y-75880000D02*
X87540000Y-76620000D01*
X87140000Y-75480000D02*
X87540000Y-75880000D01*
X125699361Y-81086377D02*
X125705738Y-81080000D01*
X86820000Y-75480000D02*
X87140000Y-75480000D01*
X87540000Y-76620000D02*
X92006377Y-81086377D01*
X125705738Y-81080000D02*
X126130002Y-81080000D01*
X125476000Y-85725000D02*
X126669999Y-84531001D01*
X126669999Y-84531001D02*
X126669999Y-81619997D01*
X126669999Y-81619997D02*
X126430001Y-81379999D01*
X126430001Y-81379999D02*
X126130002Y-81080000D01*
D35*
X122600000Y-78740000D02*
X122840000Y-78980000D01*
X121513600Y-78740000D02*
X122600000Y-78740000D01*
X109805998Y-45585998D02*
X109960000Y-45740000D01*
X105678622Y-45585998D02*
X109805998Y-45585998D01*
X102870000Y-48394620D02*
X105678622Y-45585998D01*
X73916677Y-74783690D02*
X72363690Y-74783690D01*
X72363690Y-74783690D02*
X71960000Y-74380000D01*
X112170000Y-45740000D02*
X110990000Y-45740000D01*
X110990000Y-45740000D02*
X109960000Y-45740000D01*
D34*
X121513600Y-75565000D02*
X121513600Y-78740000D01*
D35*
X86504583Y-75480000D02*
X86820000Y-75480000D01*
X84700000Y-75260000D02*
X86284583Y-75260000D01*
D34*
X87359999Y-74259999D02*
X87359999Y-74940001D01*
X86750000Y-73650000D02*
X87359999Y-74259999D01*
X87359999Y-74940001D02*
X87119999Y-75180001D01*
X87119999Y-75180001D02*
X86820000Y-75480000D01*
D35*
X86284583Y-75260000D02*
X86504583Y-75480000D01*
X76200000Y-74460000D02*
X74240367Y-74460000D01*
X74240367Y-74460000D02*
X74216676Y-74483691D01*
X74216676Y-74483691D02*
X73916677Y-74783690D01*
X119380000Y-39370000D02*
X119380000Y-40714076D01*
X119380000Y-40714076D02*
X119764002Y-41098078D01*
X119764002Y-42835998D02*
X119380000Y-43220000D01*
X119764002Y-41098078D02*
X119764002Y-42835998D01*
X112080000Y-38735000D02*
X112080000Y-41270000D01*
X112080000Y-41270000D02*
X109960000Y-43390000D01*
X109960000Y-43390000D02*
X109960000Y-45740000D01*
X119380000Y-39370000D02*
X118522000Y-39370000D01*
X118522000Y-39370000D02*
X117821001Y-40070999D01*
X117821001Y-40070999D02*
X115759001Y-40070999D01*
X115759001Y-40070999D02*
X114170000Y-41660000D01*
X114170000Y-41660000D02*
X114170000Y-43740000D01*
X114170000Y-43740000D02*
X112170000Y-45740000D01*
X112080000Y-39235380D02*
X112080000Y-38735000D01*
D34*
X125476000Y-85725000D02*
X124285399Y-86915601D01*
X124285399Y-86915601D02*
X114964601Y-86915601D01*
X114964601Y-86915601D02*
X113934000Y-85885000D01*
X113934000Y-85885000D02*
X113030000Y-85885000D01*
D35*
X104760000Y-37580570D02*
X97870000Y-37580570D01*
X97870000Y-37580570D02*
X90700000Y-37580570D01*
X97790000Y-38989000D02*
X97790000Y-37660570D01*
X97790000Y-37660570D02*
X97870000Y-37580570D01*
X84700000Y-73660000D02*
X86740000Y-73660000D01*
X86740000Y-73660000D02*
X86750000Y-73650000D01*
X111425950Y-37580570D02*
X104760000Y-37580570D01*
X104775000Y-38989000D02*
X104775000Y-37595570D01*
X104775000Y-37595570D02*
X104760000Y-37580570D01*
X90700000Y-37580570D02*
X83850000Y-37580570D01*
X90805000Y-38989000D02*
X90805000Y-37685570D01*
X90805000Y-37685570D02*
X90700000Y-37580570D01*
X83850000Y-37580570D02*
X76790000Y-37580570D01*
X83820000Y-38989000D02*
X83820000Y-37610570D01*
X83820000Y-37610570D02*
X83850000Y-37580570D01*
X76790000Y-37580570D02*
X70890050Y-37580570D01*
X76835000Y-38989000D02*
X76835000Y-37625570D01*
X76835000Y-37625570D02*
X76790000Y-37580570D01*
X112080000Y-38735000D02*
X112080000Y-38234620D01*
X112080000Y-38234620D02*
X111425950Y-37580570D01*
X70890050Y-37580570D02*
X69982000Y-38488620D01*
X69982000Y-38488620D02*
X69982000Y-38989000D01*
D34*
X105241680Y-84080388D02*
X87502456Y-84080388D01*
X83674897Y-80252829D02*
X83674897Y-80008169D01*
X106137068Y-83185000D02*
X105241680Y-84080388D01*
X87502456Y-84080388D02*
X83674897Y-80252829D01*
X113030000Y-83185000D02*
X106137068Y-83185000D01*
X81076311Y-74578937D02*
X81376310Y-74878936D01*
X80050000Y-73552626D02*
X81076311Y-74578937D01*
X80050000Y-69010000D02*
X80050000Y-73552626D01*
X113030000Y-83185000D02*
X113934000Y-83185000D01*
X113934000Y-83185000D02*
X116205000Y-83185000D01*
X116205000Y-83185000D02*
X117084000Y-83185000D01*
X117084000Y-83185000D02*
X120396000Y-83185000D01*
X70158021Y-65840000D02*
X71430000Y-65840000D01*
X71430000Y-65840000D02*
X71880001Y-65389999D01*
X71880001Y-65389999D02*
X72180000Y-65090000D01*
X98593593Y-58656044D02*
X101520000Y-61582451D01*
X95415993Y-58656044D02*
X98593593Y-58656044D01*
X101520000Y-61582451D02*
X101520000Y-64400000D01*
X93481037Y-60591000D02*
X95415993Y-58656044D01*
X92075000Y-61495000D02*
X92979000Y-60591000D01*
X100659999Y-65260001D02*
X100360000Y-65560000D01*
X92075000Y-61595000D02*
X92075000Y-61495000D01*
X92979000Y-60591000D02*
X93481037Y-60591000D01*
X101520000Y-64400000D02*
X100659999Y-65260001D01*
X95268645Y-66907025D02*
X88140052Y-66907025D01*
X96615670Y-65560000D02*
X95268645Y-66907025D01*
X100360000Y-65560000D02*
X96615670Y-65560000D01*
X88140052Y-66907025D02*
X87715788Y-66907025D01*
X112457010Y-65860000D02*
X112227009Y-65629999D01*
X112227009Y-65629999D02*
X111927010Y-65330000D01*
X118750000Y-65860000D02*
X112457010Y-65860000D01*
X93456970Y-59972998D02*
X95227936Y-58202033D01*
X98781650Y-58202033D02*
X101974011Y-61394394D01*
X101974011Y-64873953D02*
X100557964Y-66290000D01*
X95227936Y-58202033D02*
X98781650Y-58202033D01*
X89518002Y-59972998D02*
X93456970Y-59972998D01*
X100557964Y-66290000D02*
X99860000Y-66290000D01*
X93480000Y-75092068D02*
X93480000Y-76055736D01*
X88900000Y-61595000D02*
X88900000Y-60591000D01*
X96414011Y-72158057D02*
X93480000Y-75092068D01*
X99860000Y-66290000D02*
X96414011Y-69735989D01*
X88900000Y-60591000D02*
X89518002Y-59972998D01*
X93480000Y-76055736D02*
X93480000Y-76480000D01*
X96414011Y-69735989D02*
X96414011Y-72158057D01*
X101974011Y-61394394D02*
X101974011Y-64873953D01*
X97959999Y-59583053D02*
X97660000Y-59283054D01*
X98425000Y-60048054D02*
X97959999Y-59583053D01*
X98425000Y-61595000D02*
X98425000Y-60048054D01*
X116630000Y-46340000D02*
X108070000Y-46340000D01*
X117230000Y-46940000D02*
X116630000Y-46340000D01*
X112260865Y-72739137D02*
X112560864Y-73039136D01*
X112020000Y-72498272D02*
X112260865Y-72739137D01*
X112020000Y-67790000D02*
X112020000Y-72498272D01*
X111300000Y-62020000D02*
X111300000Y-66210000D01*
X111300000Y-66210000D02*
X112020000Y-66930000D01*
X112020000Y-66930000D02*
X112020000Y-67790000D01*
X98740000Y-41991280D02*
X98740000Y-42491660D01*
X98740000Y-42491660D02*
X100338340Y-44090000D01*
X100338340Y-44090000D02*
X101040000Y-44090000D01*
X73600000Y-50190000D02*
X74240000Y-50830000D01*
X74240000Y-50830000D02*
X77180000Y-50830000D01*
X78821978Y-51467978D02*
X78184000Y-50830000D01*
X79418022Y-52576095D02*
X78821978Y-51980051D01*
X79418022Y-60670046D02*
X79418022Y-52576095D01*
X78821978Y-51980051D02*
X78821978Y-51467978D01*
X76200000Y-69931000D02*
X76200000Y-63888068D01*
X76200000Y-63888068D02*
X79418022Y-60670046D01*
X78184000Y-50830000D02*
X77180000Y-50830000D01*
X76200000Y-69931000D02*
X76200000Y-70370000D01*
X76200000Y-70370000D02*
X74510000Y-70370000D01*
X74510000Y-70370000D02*
X74480000Y-70400000D01*
X76200000Y-70460000D02*
X76200000Y-69931000D01*
X77180000Y-51480000D02*
X78184000Y-51480000D01*
X73622998Y-70812569D02*
X73735213Y-70924784D01*
X78184000Y-51480000D02*
X78367967Y-51663967D01*
X78367967Y-51663967D02*
X78367967Y-52227967D01*
X78367967Y-52227967D02*
X78964011Y-52824011D01*
X78964011Y-52824011D02*
X78964011Y-59834591D01*
X78964011Y-59834591D02*
X73622998Y-65175604D01*
X73735213Y-70924784D02*
X74035212Y-71224783D01*
X73622998Y-65175604D02*
X73622998Y-70812569D01*
X74070429Y-71260000D02*
X74035212Y-71224783D01*
X76200000Y-71260000D02*
X74070429Y-71260000D01*
X77180000Y-53430000D02*
X74880000Y-53430000D01*
X74880000Y-53430000D02*
X73630000Y-52180000D01*
X78510000Y-59285000D02*
X78510000Y-53756000D01*
X78510000Y-53756000D02*
X78184000Y-53430000D01*
X78184000Y-53430000D02*
X77180000Y-53430000D01*
X72880000Y-64915000D02*
X78510000Y-59285000D01*
X72880000Y-66290000D02*
X72880000Y-64915000D01*
X77650000Y-78564000D02*
X77290000Y-78924000D01*
X77290000Y-78924000D02*
X77290000Y-79300000D01*
X77650000Y-77510000D02*
X77650000Y-78564000D01*
X77650000Y-70742464D02*
X77646820Y-70739284D01*
X77650000Y-77510000D02*
X77650000Y-70742464D01*
X79459185Y-80215944D02*
X79459185Y-79799675D01*
X60975989Y-87213921D02*
X61758056Y-87995988D01*
X79459185Y-79799675D02*
X79459185Y-79375411D01*
X61758056Y-87995988D02*
X82656079Y-87995989D01*
X80721388Y-81478147D02*
X79459185Y-80215944D01*
X83535988Y-87116080D02*
X83535988Y-83402747D01*
X81611388Y-81478147D02*
X80721388Y-81478147D01*
X63287010Y-67000000D02*
X60975989Y-69311021D01*
X60975989Y-69311021D02*
X60975989Y-87213921D01*
X83535988Y-83402747D02*
X81611388Y-81478147D01*
X80050000Y-78784596D02*
X79759184Y-79075412D01*
X79759184Y-79075412D02*
X79459185Y-79375411D01*
X80050000Y-77510000D02*
X80050000Y-78784596D01*
X82656079Y-87995989D02*
X83535988Y-87116080D01*
X63711274Y-67000000D02*
X63287010Y-67000000D01*
X67310000Y-65365000D02*
X66431000Y-65365000D01*
X64796000Y-67000000D02*
X63711274Y-67000000D01*
X66431000Y-65365000D02*
X64796000Y-67000000D01*
X59000000Y-64980000D02*
X59000000Y-66284000D01*
X59000000Y-66284000D02*
X59716000Y-67000000D01*
X59716000Y-67000000D02*
X59940000Y-67000000D01*
X59000000Y-55880000D02*
X59000000Y-64980000D01*
X82920000Y-88450000D02*
X83990000Y-87380000D01*
X80909445Y-81024136D02*
X80227331Y-80342022D01*
X60521978Y-69122964D02*
X60521978Y-87401978D01*
X62360000Y-53340000D02*
X62360000Y-67284942D01*
X80227331Y-80023215D02*
X80227331Y-79598951D01*
X83990000Y-87380000D02*
X83990000Y-83214691D01*
X61570000Y-88450000D02*
X82920000Y-88450000D01*
X81799445Y-81024136D02*
X80909445Y-81024136D01*
X80850000Y-78976282D02*
X80227331Y-79598951D01*
X80227331Y-80342022D02*
X80227331Y-80023215D01*
X62360000Y-67284942D02*
X60521978Y-69122964D01*
X80850000Y-77510000D02*
X80850000Y-78976282D01*
X60521978Y-87401978D02*
X61570000Y-88450000D01*
X83990000Y-83214691D02*
X81799445Y-81024136D01*
X64000000Y-53060000D02*
X62610000Y-53060000D01*
X62610000Y-53060000D02*
X62150000Y-53060000D01*
X62360000Y-53340000D02*
X62360000Y-53310000D01*
X62360000Y-53310000D02*
X62610000Y-53060000D01*
X62150000Y-53060000D02*
X62150000Y-53130000D01*
X62150000Y-53130000D02*
X62360000Y-53340000D01*
X59746000Y-53060000D02*
X61570000Y-53060000D01*
X61570000Y-53060000D02*
X62150000Y-53060000D01*
X67310000Y-51395000D02*
X65665000Y-51395000D01*
X65665000Y-51395000D02*
X64000000Y-53060000D01*
X59000000Y-51010000D02*
X59000000Y-52314000D01*
X59000000Y-52314000D02*
X59746000Y-53060000D01*
X59000000Y-41910000D02*
X59000000Y-51010000D01*
X67310000Y-51395000D02*
X67310000Y-51520000D01*
X80533330Y-81932157D02*
X78662145Y-80060972D01*
X81414955Y-81932157D02*
X80533330Y-81932157D01*
X83081977Y-83599179D02*
X81414955Y-81932157D01*
X82468022Y-87541978D02*
X83081977Y-86928023D01*
X83081977Y-86928023D02*
X83081977Y-83599179D01*
X61430000Y-87025864D02*
X61946114Y-87541978D01*
X61620000Y-81054264D02*
X61430000Y-81244264D01*
X61620000Y-80630000D02*
X61620000Y-81054264D01*
X79250000Y-77510000D02*
X79250000Y-78564000D01*
X61946114Y-87541978D02*
X82468022Y-87541978D01*
X78662145Y-79730783D02*
X78662145Y-79306519D01*
X78662145Y-80060972D02*
X78662145Y-79730783D01*
X78662145Y-79151855D02*
X78662145Y-79306519D01*
X61430000Y-81244264D02*
X61430000Y-87025864D01*
X79250000Y-78564000D02*
X78662145Y-79151855D01*
X67310000Y-78700000D02*
X66431000Y-78700000D01*
X66431000Y-78700000D02*
X65141000Y-79990000D01*
X65141000Y-79990000D02*
X62260000Y-79990000D01*
X62260000Y-79990000D02*
X61620000Y-80630000D01*
X59000000Y-78105000D02*
X59000000Y-79558547D01*
X59221978Y-79780525D02*
X59521977Y-80080524D01*
X59000000Y-79558547D02*
X59221978Y-79780525D01*
X59000000Y-69005000D02*
X59000000Y-70309000D01*
X59000000Y-70309000D02*
X59000000Y-78105000D01*
X82450000Y-79547540D02*
X81900405Y-80097135D01*
X82024670Y-80397134D02*
X81600406Y-80397134D01*
X122936000Y-85725000D02*
X121745399Y-84534399D01*
X82224671Y-80397134D02*
X82024670Y-80397134D01*
X81900405Y-80097135D02*
X81600406Y-80397134D01*
X82450000Y-77510000D02*
X82450000Y-79547540D01*
X121745399Y-84534399D02*
X86361936Y-84534399D01*
X86361936Y-84534399D02*
X82224671Y-80397134D01*
X121690000Y-83701090D02*
X121690000Y-82716910D01*
X84301899Y-79637635D02*
X83734264Y-79070000D01*
X84301899Y-80237763D02*
X84301899Y-79637635D01*
X120967489Y-81994399D02*
X106685601Y-81994399D01*
X87690513Y-83626377D02*
X84301899Y-80237763D01*
X121690000Y-82716910D02*
X120967489Y-81994399D01*
X125476000Y-84302600D02*
X125402999Y-84375601D01*
X125476000Y-83185000D02*
X125476000Y-84302600D01*
X106685601Y-81994399D02*
X105053623Y-83626377D01*
X105053623Y-83626377D02*
X87690513Y-83626377D01*
X83734264Y-79070000D02*
X83310000Y-79070000D01*
X122364511Y-84375601D02*
X121690000Y-83701090D01*
X125402999Y-84375601D02*
X122364511Y-84375601D01*
X83250000Y-79010000D02*
X83310000Y-79070000D01*
X83250000Y-77510000D02*
X83250000Y-79010000D01*
X87878570Y-83172366D02*
X86831636Y-82125432D01*
X106497543Y-81540389D02*
X104865566Y-83172366D01*
X86831636Y-82125432D02*
X86831636Y-76982628D01*
X86831636Y-76982628D02*
X86831636Y-76558364D01*
X104865566Y-83172366D02*
X87878570Y-83172366D01*
X121291388Y-81540388D02*
X106497543Y-81540389D01*
X122936000Y-83185000D02*
X121291388Y-81540388D01*
X84700000Y-76060000D02*
X85909008Y-76060000D01*
X86407372Y-76558364D02*
X86831636Y-76558364D01*
X85909008Y-76060000D02*
X86407372Y-76558364D01*
X86620000Y-72060000D02*
X85754000Y-72060000D01*
X88936000Y-72060000D02*
X86620000Y-72060000D01*
X90170000Y-72390000D02*
X89266000Y-72390000D01*
X89266000Y-72390000D02*
X88936000Y-72060000D01*
X85754000Y-72060000D02*
X84700000Y-72060000D01*
X98425000Y-64295000D02*
X97238602Y-64295000D01*
X87488978Y-70265784D02*
X87188979Y-70565783D01*
X97238602Y-64295000D02*
X95253579Y-66280023D01*
X95253579Y-66280023D02*
X87322013Y-66280023D01*
X87322013Y-66280023D02*
X87062998Y-66539038D01*
X87062998Y-66539038D02*
X87062998Y-67140962D01*
X87612283Y-67690247D02*
X87612283Y-70142479D01*
X87062998Y-67140962D02*
X87612283Y-67690247D01*
X87612283Y-70142479D02*
X87488978Y-70265784D01*
X84700000Y-71260000D02*
X86494762Y-71260000D01*
X86888980Y-70865782D02*
X87188979Y-70565783D01*
X86494762Y-71260000D02*
X86888980Y-70865782D01*
X92814988Y-65826012D02*
X87083956Y-65826012D01*
X87083956Y-65826012D02*
X86608987Y-66300981D01*
X86632070Y-69508145D02*
X86932069Y-69808144D01*
X95250000Y-64295000D02*
X94346000Y-64295000D01*
X94346000Y-64295000D02*
X92814988Y-65826012D01*
X86608987Y-66300981D02*
X86608987Y-69485062D01*
X86608987Y-69485062D02*
X86632070Y-69508145D01*
X86280213Y-70460000D02*
X86632070Y-70108143D01*
X84700000Y-70460000D02*
X86280213Y-70460000D01*
X86632070Y-70108143D02*
X86932069Y-69808144D01*
X83786635Y-66863365D02*
X83486636Y-67163364D01*
X92075000Y-64295000D02*
X90997999Y-65372001D01*
X90997999Y-65372001D02*
X85277999Y-65372001D01*
X85277999Y-65372001D02*
X83786635Y-66863365D01*
X83250000Y-67400000D02*
X83486636Y-67163364D01*
X83250000Y-69010000D02*
X83250000Y-67400000D01*
X83039186Y-66470829D02*
X82739187Y-66770828D01*
X85215015Y-64295000D02*
X83039186Y-66470829D01*
X82450000Y-69010000D02*
X82450000Y-67060015D01*
X88900000Y-64295000D02*
X85215015Y-64295000D01*
X82450000Y-67060015D02*
X82739187Y-66770828D01*
X99480000Y-70634000D02*
X100130000Y-70634000D01*
X103437002Y-59649038D02*
X101081976Y-57294012D01*
X88411358Y-58801978D02*
X82069555Y-65143781D01*
X103437002Y-65899040D02*
X103437002Y-59649038D01*
X100130000Y-70634000D02*
X103800000Y-66964000D01*
X103800000Y-66964000D02*
X103800000Y-66262038D01*
X103800000Y-66262038D02*
X103437002Y-65899040D01*
X101081976Y-57294012D02*
X94851820Y-57294012D01*
X82069555Y-65143781D02*
X81769556Y-65443780D01*
X94851820Y-57294012D02*
X93343854Y-58801978D01*
X93343854Y-58801978D02*
X88411358Y-58801978D01*
X81670692Y-65542644D02*
X81769556Y-65443780D01*
X80939055Y-65542644D02*
X81670692Y-65542644D01*
X79250000Y-67231699D02*
X80939055Y-65542644D01*
X79250000Y-69010000D02*
X79250000Y-67231699D01*
X97913385Y-70511056D02*
X97613386Y-70211057D01*
X99480000Y-70634000D02*
X98036329Y-70634000D01*
X98036329Y-70634000D02*
X97913385Y-70511056D01*
X81468648Y-64615643D02*
X81168649Y-64915642D01*
X94663762Y-56840002D02*
X93155797Y-58347967D01*
X103891012Y-59460980D02*
X101270033Y-56840001D01*
X87736324Y-58347967D02*
X81468648Y-64615643D01*
X103891013Y-65680983D02*
X103891012Y-59460980D01*
X101787002Y-72860962D02*
X101787002Y-70395066D01*
X104351011Y-66140981D02*
X103891013Y-65680983D01*
X104351011Y-67831057D02*
X104351011Y-66140981D01*
X93155797Y-58347967D02*
X87736324Y-58347967D01*
X101787002Y-70395066D02*
X104351011Y-67831057D01*
X99480000Y-73234000D02*
X101413964Y-73234000D01*
X101413964Y-73234000D02*
X101787002Y-72860962D01*
X101270033Y-56840001D02*
X94663762Y-56840002D01*
X97662450Y-73234000D02*
X97639460Y-73211010D01*
X99480000Y-73234000D02*
X97662450Y-73234000D01*
X78450000Y-69010000D02*
X78450000Y-67389631D01*
X78450000Y-67389631D02*
X80923989Y-64915642D01*
X80923989Y-64915642D02*
X81168649Y-64915642D01*
X73640000Y-49200000D02*
X74620000Y-50180000D01*
X74620000Y-50180000D02*
X77180000Y-50180000D01*
X77150001Y-66860001D02*
X77450000Y-67160000D01*
X79872033Y-60858103D02*
X77150001Y-63580135D01*
X79872033Y-52388038D02*
X79872033Y-60858103D01*
X79275989Y-51271989D02*
X79275989Y-51791994D01*
X77150001Y-63580135D02*
X77150001Y-66860001D01*
X78184000Y-50180000D02*
X79275989Y-51271989D01*
X79275989Y-51791994D02*
X79872033Y-52388038D01*
X77180000Y-50180000D02*
X78184000Y-50180000D01*
X77650000Y-67360000D02*
X77450000Y-67160000D01*
X77650000Y-69010000D02*
X77650000Y-67360000D01*
D35*
X104770000Y-48895000D02*
X104770000Y-49395380D01*
X104770000Y-49395380D02*
X103915949Y-50249431D01*
X103915949Y-50249431D02*
X101109431Y-50249431D01*
X101109431Y-50249431D02*
X99695000Y-48835000D01*
X99695000Y-48835000D02*
X99695000Y-48735000D01*
D34*
X99690000Y-38989000D02*
X102075000Y-38989000D01*
X102075000Y-38989000D02*
X102235000Y-38829000D01*
X106675000Y-38989000D02*
X109060000Y-38989000D01*
X109060000Y-38989000D02*
X109220000Y-38829000D01*
X85720000Y-38989000D02*
X88105000Y-38989000D01*
X88105000Y-38989000D02*
X88265000Y-38829000D01*
X92705000Y-38989000D02*
X95090000Y-38989000D01*
X95090000Y-38989000D02*
X95250000Y-38829000D01*
X71882000Y-38989000D02*
X74295000Y-38989000D01*
X108639999Y-80119999D02*
X108340000Y-79820000D01*
X126060330Y-74534000D02*
X123921013Y-76673317D01*
X108698358Y-80178358D02*
X108639999Y-80119999D01*
X123921013Y-79469019D02*
X123211674Y-80178358D01*
X123921013Y-76673317D02*
X123921013Y-79469019D01*
X130421000Y-74534000D02*
X126060330Y-74534000D01*
X123211674Y-80178358D02*
X108698358Y-80178358D01*
X108066000Y-79820000D02*
X108340000Y-79820000D01*
X106680000Y-79084000D02*
X107330000Y-79084000D01*
X107330000Y-79084000D02*
X108066000Y-79820000D01*
X130421000Y-75184000D02*
X129214000Y-75184000D01*
X129214000Y-75184000D02*
X129090000Y-75060000D01*
X105551000Y-78434000D02*
X106680000Y-78434000D01*
X129090000Y-75060000D02*
X126271908Y-75060000D01*
X126271908Y-75060000D02*
X124375023Y-76956885D01*
X124375023Y-76956885D02*
X124375023Y-79657077D01*
X124375023Y-79657077D02*
X123399731Y-80632369D01*
X123399731Y-80632369D02*
X105542369Y-80632369D01*
X105542369Y-80632369D02*
X105130000Y-80220000D01*
X105130000Y-80220000D02*
X105130000Y-78855000D01*
X105130000Y-78855000D02*
X105551000Y-78434000D01*
X107880363Y-78715191D02*
X107987198Y-78715191D01*
X106680000Y-78434000D02*
X107599172Y-78434000D01*
X107987198Y-78715191D02*
X108411462Y-78715191D01*
X107599172Y-78434000D02*
X107880363Y-78715191D01*
D35*
X128905000Y-46990000D02*
X128605000Y-46990000D01*
X128605000Y-46990000D02*
X126880000Y-48715000D01*
X128905000Y-46990000D02*
X128905000Y-40080000D01*
D34*
X96730000Y-86490000D02*
X98800000Y-88560000D01*
X98800000Y-88560000D02*
X126320000Y-88560000D01*
X126320000Y-88560000D02*
X128460000Y-86420000D01*
X125510000Y-77404264D02*
X125510000Y-76980000D01*
X128460000Y-86420000D02*
X128460000Y-82002038D01*
X128460000Y-82002038D02*
X125510000Y-79052038D01*
X125510000Y-79052038D02*
X125510000Y-77404264D01*
X93345000Y-69890000D02*
X93345000Y-70015000D01*
X93502113Y-80459367D02*
X93695736Y-80459367D01*
X93345000Y-70015000D02*
X91980000Y-71380000D01*
X91980000Y-71380000D02*
X91980000Y-78937254D01*
X91980000Y-78937254D02*
X93502113Y-80459367D01*
X93695736Y-80459367D02*
X94120000Y-80459367D01*
D35*
X127000000Y-38735000D02*
X127000000Y-38860000D01*
X127000000Y-38860000D02*
X125650000Y-40210000D01*
X125650000Y-40210000D02*
X125650000Y-42142202D01*
X125650000Y-42142202D02*
X123568201Y-44224001D01*
X123568201Y-44224001D02*
X121541799Y-44224001D01*
X121541799Y-44224001D02*
X121208011Y-43890213D01*
X121208011Y-41549989D02*
X121920000Y-40838000D01*
X121208011Y-43890213D02*
X121208011Y-41549989D01*
X121920000Y-40838000D02*
X121920000Y-40005000D01*
X126880000Y-48715000D02*
X126880000Y-52062000D01*
X126880000Y-52062000D02*
X129540000Y-54722000D01*
X129540000Y-54722000D02*
X129540000Y-55880000D01*
D34*
X90170000Y-69690000D02*
X93145000Y-69690000D01*
X93145000Y-69690000D02*
X93345000Y-69890000D01*
X126040000Y-72490000D02*
X126780000Y-71750000D01*
X126780000Y-71750000D02*
X126780000Y-59850000D01*
D35*
X113030000Y-41737280D02*
X113030000Y-37680000D01*
X113030000Y-37680000D02*
X114410000Y-36300000D01*
X126857988Y-35667988D02*
X128905000Y-37715000D01*
X114410000Y-36300000D02*
X121112798Y-36300000D01*
X121112798Y-36300000D02*
X121744810Y-35667988D01*
X121744810Y-35667988D02*
X126857988Y-35667988D01*
X128905000Y-37715000D02*
X128905000Y-40080000D01*
X128905000Y-40080000D02*
X128905000Y-39865000D01*
X127775000Y-38735000D02*
X127000000Y-38735000D01*
X128905000Y-39865000D02*
X127775000Y-38735000D01*
D34*
X78035143Y-79005557D02*
X78035143Y-80315143D01*
X78450000Y-77510000D02*
X78450000Y-78590700D01*
X80645000Y-82925000D02*
X80645000Y-83025000D01*
X78450000Y-78590700D02*
X78035143Y-79005557D01*
X78035143Y-80315143D02*
X80645000Y-82925000D01*
X81650000Y-79297001D02*
X81165133Y-79781868D01*
X81650000Y-77510000D02*
X81650000Y-79297001D01*
X81165133Y-79781868D02*
X80865134Y-80081867D01*
X99695000Y-51435000D02*
X98791000Y-51435000D01*
X98791000Y-51435000D02*
X93248999Y-56977001D01*
X93248999Y-56977001D02*
X88220562Y-56977001D01*
X88220562Y-56977001D02*
X78767563Y-66430000D01*
X78767563Y-66430000D02*
X78404264Y-66430000D01*
X78404264Y-66430000D02*
X77980000Y-66430000D01*
X81650000Y-77510000D02*
X81650000Y-76456000D01*
X81650000Y-76456000D02*
X78670000Y-73476000D01*
X78670000Y-73476000D02*
X78670000Y-71300000D01*
X108477643Y-56400000D02*
X104818022Y-60059621D01*
X104818022Y-60059621D02*
X104518023Y-60359620D01*
X122019967Y-52263328D02*
X122019967Y-52687592D01*
X119667964Y-56400000D02*
X108477643Y-56400000D01*
X122258989Y-52926614D02*
X122258989Y-53808975D01*
X102510001Y-59650001D02*
X102810000Y-59950000D01*
X93495922Y-59291978D02*
X95039879Y-57748022D01*
X89143758Y-59291978D02*
X93495922Y-59291978D01*
X82379504Y-66056232D02*
X89143758Y-59291978D01*
X100608022Y-57748022D02*
X102510001Y-59650001D01*
X95039879Y-57748022D02*
X100608022Y-57748022D01*
X122019967Y-52687592D02*
X122258989Y-52926614D01*
X122258989Y-53808975D02*
X119667964Y-56400000D01*
X81650000Y-66785736D02*
X82079505Y-66356231D01*
X82079505Y-66356231D02*
X82379504Y-66056232D01*
X81650000Y-69010000D02*
X81650000Y-66785736D01*
X122355000Y-38105000D02*
X123330000Y-37130000D01*
X121920000Y-38105000D02*
X122355000Y-38105000D01*
X111400000Y-77510000D02*
X109865736Y-77510000D01*
X112140000Y-78250000D02*
X111400000Y-77510000D01*
X112140000Y-78670000D02*
X112140000Y-78250000D01*
X108860000Y-76504264D02*
X108860000Y-76264264D01*
X113194349Y-79724349D02*
X112140000Y-78670000D01*
X123023615Y-79724349D02*
X113194349Y-79724349D01*
X123467002Y-76485260D02*
X123467002Y-79280962D01*
X123467002Y-79280962D02*
X123023615Y-79724349D01*
X128990000Y-70962262D02*
X123467002Y-76485260D01*
X131050000Y-70962262D02*
X128990000Y-70962262D01*
X106680000Y-75834000D02*
X108854000Y-75834000D01*
X109865736Y-77510000D02*
X108860000Y-76504264D01*
X108854000Y-75834000D02*
X108860000Y-75840000D01*
X108860000Y-76264264D02*
X108860000Y-75840000D01*
D35*
X131550001Y-75810000D02*
X131550001Y-71460000D01*
X131550001Y-71460000D02*
X131550001Y-70910000D01*
X131052263Y-70962262D02*
X131550001Y-71460000D01*
X131050000Y-70962262D02*
X131052263Y-70962262D01*
X131550001Y-70500000D02*
X131550001Y-64467921D01*
X131550001Y-70910000D02*
X131550001Y-70500000D01*
D34*
X131050000Y-70962262D02*
X131497739Y-70962262D01*
D35*
X131550001Y-70500000D02*
X131512262Y-70500000D01*
X131512262Y-70500000D02*
X131050000Y-70962262D01*
D34*
X99480000Y-72584000D02*
X96936000Y-72584000D01*
X96936000Y-72584000D02*
X96920000Y-72600000D01*
D35*
X120500000Y-40349200D02*
X120184001Y-40033201D01*
X120184001Y-40033201D02*
X120184001Y-38023999D01*
X127534002Y-53802724D02*
X124478011Y-50746733D01*
X120500000Y-45838722D02*
X120500000Y-40349200D01*
X124478011Y-49816733D02*
X120500000Y-45838722D01*
X124478011Y-50746733D02*
X124478011Y-49816733D01*
X127534002Y-60451922D02*
X127534002Y-53802724D01*
X131550001Y-64467921D02*
X127534002Y-60451922D01*
X120184001Y-38023999D02*
X120468000Y-37740000D01*
D34*
X131497739Y-70962262D02*
X131550001Y-70910000D01*
X93825668Y-79278942D02*
X93525669Y-79578941D01*
X94107002Y-78997608D02*
X93825668Y-79278942D01*
X94107002Y-75412998D02*
X94107002Y-78997608D01*
X96920000Y-72600000D02*
X94107002Y-75412998D01*
D35*
X131550001Y-76894921D02*
X131550001Y-75810000D01*
D34*
X130421000Y-75834000D02*
X131526001Y-75834000D01*
X131526001Y-75834000D02*
X131550001Y-75810000D01*
X104700000Y-75250000D02*
X105284000Y-75834000D01*
X105284000Y-75834000D02*
X106680000Y-75834000D01*
X104700000Y-72900000D02*
X104700000Y-75250000D01*
X99480000Y-72584000D02*
X101136000Y-72584000D01*
X101136000Y-72584000D02*
X101160000Y-72560000D01*
D35*
X124325000Y-40005000D02*
X124120000Y-40005000D01*
X125158000Y-39172000D02*
X124325000Y-40005000D01*
X124063200Y-36375998D02*
X125158000Y-37470798D01*
X120704076Y-37740000D02*
X122068078Y-36375998D01*
X120468000Y-37740000D02*
X120704076Y-37740000D01*
X125158000Y-37470798D02*
X125158000Y-39172000D01*
X122068078Y-36375998D02*
X124063200Y-36375998D01*
X131031921Y-77413001D02*
X131550001Y-76894921D01*
X127000000Y-76200000D02*
X128133000Y-76200000D01*
X128133000Y-76200000D02*
X129346001Y-77413001D01*
X129346001Y-77413001D02*
X131031921Y-77413001D01*
D34*
X80645000Y-85725000D02*
X81925000Y-85725000D01*
X81925000Y-85725000D02*
X82390000Y-86190000D01*
D35*
X120238000Y-37970000D02*
X120468000Y-37740000D01*
X119380000Y-37970000D02*
X120238000Y-37970000D01*
X116840000Y-38575000D02*
X118775000Y-38575000D01*
X118775000Y-38575000D02*
X119380000Y-37970000D01*
X113980000Y-38735000D02*
X116680000Y-38735000D01*
X116680000Y-38735000D02*
X116840000Y-38575000D01*
D34*
X76200000Y-75260000D02*
X74506699Y-75260000D01*
X73750067Y-76016632D02*
X74050066Y-75716633D01*
X73472998Y-76293701D02*
X73750067Y-76016632D01*
X73472998Y-76900962D02*
X73472998Y-76293701D01*
X73660000Y-77087964D02*
X73472998Y-76900962D01*
X74506699Y-75260000D02*
X74350065Y-75416634D01*
X74350065Y-75416634D02*
X74050066Y-75716633D01*
X73660000Y-83225000D02*
X73660000Y-77087964D01*
X69508000Y-82398000D02*
X72833000Y-82398000D01*
X72833000Y-82398000D02*
X73660000Y-83225000D01*
X76200000Y-76060000D02*
X74640000Y-76060000D01*
X74640000Y-76060000D02*
X74100000Y-76600000D01*
X69508000Y-85598000D02*
X70412000Y-85598000D01*
X70412000Y-85598000D02*
X71707999Y-84302001D01*
X71707999Y-84302001D02*
X74612999Y-84302001D01*
X74612999Y-84302001D02*
X76835000Y-82080000D01*
X76835000Y-82080000D02*
X76835000Y-81955000D01*
X76200000Y-76060000D02*
X76200000Y-81320000D01*
X76200000Y-81320000D02*
X76835000Y-81955000D01*
X106680000Y-77784000D02*
X107877136Y-77784000D01*
X108878010Y-77987010D02*
X108504410Y-77987010D01*
X110490000Y-78720000D02*
X109611000Y-78720000D01*
X107877136Y-77784000D02*
X108080146Y-77987010D01*
X109611000Y-78720000D02*
X108878010Y-77987010D01*
X108504410Y-77987010D02*
X108080146Y-77987010D01*
X120015000Y-75565000D02*
X119362220Y-75565000D01*
X119362220Y-75565000D02*
X117000000Y-75565000D01*
X120015000Y-78740000D02*
X117000000Y-78740000D01*
X120330000Y-59270000D02*
X120330000Y-65690000D01*
X120330000Y-65690000D02*
X120540000Y-65900000D01*
X105725000Y-41991280D02*
X106751280Y-41991280D01*
X106751280Y-41991280D02*
X107780000Y-43020000D01*
X96530000Y-55070000D02*
X97000000Y-55540000D01*
X97000000Y-55540000D02*
X99720000Y-55540000D01*
X95740001Y-59583053D02*
X96040000Y-59283054D01*
X95250000Y-60073054D02*
X95740001Y-59583053D01*
X95250000Y-61595000D02*
X95250000Y-60073054D01*
X72530000Y-55840000D02*
X71534264Y-55840000D01*
X71534264Y-55840000D02*
X71110000Y-55840000D01*
X74500000Y-57810000D02*
X72530000Y-55840000D01*
X87990000Y-56350000D02*
X92970000Y-56350000D01*
X92970000Y-56350000D02*
X95000000Y-54320000D01*
X118400000Y-55600000D02*
X106910000Y-55600000D01*
X106910000Y-55600000D02*
X106890000Y-55580000D01*
X87990000Y-56350000D02*
X85990000Y-56350000D01*
X85990000Y-56350000D02*
X85890000Y-56450000D01*
X99760000Y-55580000D02*
X99720000Y-55540000D01*
X106890000Y-55580000D02*
X99760000Y-55580000D01*
X102069880Y-60562299D02*
X101769881Y-60262300D01*
X102872991Y-61365410D02*
X102069880Y-60562299D01*
X102872991Y-66310001D02*
X102872991Y-61365410D01*
X103172990Y-66610000D02*
X102872991Y-66310001D01*
X101880000Y-76260000D02*
X103559398Y-74580602D01*
X103559398Y-69933662D02*
X103559398Y-69509398D01*
X103559398Y-74580602D02*
X103559398Y-69933662D01*
X91755000Y-42491660D02*
X93440000Y-44176660D01*
X91755000Y-41991280D02*
X91755000Y-42491660D01*
X93440000Y-44176660D02*
X93440000Y-44320000D01*
X91450001Y-70709999D02*
X91750000Y-70410000D01*
X91350000Y-76100000D02*
X91350000Y-70810000D01*
X91350000Y-70810000D02*
X91450001Y-70709999D01*
X84770000Y-41991280D02*
X85211280Y-41991280D01*
X85211280Y-41991280D02*
X87600001Y-44380001D01*
X87600001Y-44380001D02*
X89160001Y-44380001D01*
X89160001Y-44380001D02*
X89460000Y-44680000D01*
X90600000Y-64550959D02*
X90490000Y-64660959D01*
X90600000Y-60600000D02*
X90600000Y-64550959D01*
X80234859Y-64034740D02*
X80234859Y-61725141D01*
X81200000Y-59228088D02*
X81206368Y-59221720D01*
X80234859Y-61725141D02*
X81200000Y-60760000D01*
X81200000Y-60760000D02*
X81200000Y-59228088D01*
X77785000Y-43252010D02*
X80150001Y-45617011D01*
X77785000Y-41991280D02*
X77785000Y-43252010D01*
X80150001Y-45617011D02*
X80450000Y-45917010D01*
X69704010Y-69360000D02*
X69704010Y-71865032D01*
X70199490Y-72360512D02*
X70499489Y-72660511D01*
X69704010Y-71865032D02*
X70199490Y-72360512D01*
X72630000Y-47137019D02*
X71592981Y-47137019D01*
X71592981Y-47137019D02*
X69480000Y-49250000D01*
X69480000Y-49250000D02*
X69480000Y-58255736D01*
X69480000Y-58255736D02*
X70190000Y-58965736D01*
X70190000Y-58965736D02*
X70190000Y-59390000D01*
X70190000Y-64802036D02*
X70190000Y-59814264D01*
X69531011Y-65461025D02*
X70190000Y-64802036D01*
X69704010Y-68935736D02*
X69531011Y-68762737D01*
X69704010Y-69360000D02*
X69704010Y-68935736D01*
X70190000Y-59814264D02*
X70190000Y-59390000D01*
X69531011Y-68762737D02*
X69531011Y-65461025D01*
X70932000Y-41991280D02*
X70932000Y-43145710D01*
X72630000Y-44843710D02*
X72630000Y-46712755D01*
X72630000Y-46712755D02*
X72630000Y-47137019D01*
X70932000Y-43145710D02*
X72630000Y-44843710D01*
X103820000Y-51897280D02*
X111036720Y-51897280D01*
X111036720Y-51897280D02*
X111760000Y-51174000D01*
X111760000Y-51174000D02*
X111760000Y-49420000D01*
X118745000Y-49370000D02*
X111810000Y-49370000D01*
X111810000Y-49370000D02*
X111760000Y-49420000D01*
X78735000Y-38989000D02*
X81280000Y-38989000D01*
X123080000Y-38361000D02*
X123080000Y-41491000D01*
X123080000Y-41491000D02*
X122555000Y-42016000D01*
X122555000Y-42016000D02*
X122555000Y-43020000D01*
X124120000Y-38105000D02*
X123336000Y-38105000D01*
X123336000Y-38105000D02*
X123080000Y-38361000D01*
X108784082Y-73391978D02*
X108484083Y-73691977D01*
X114300000Y-75565000D02*
X114200000Y-75565000D01*
X114200000Y-75565000D02*
X112026978Y-73391978D01*
X112026978Y-73391978D02*
X108784082Y-73391978D01*
X108059819Y-73691977D02*
X108484083Y-73691977D01*
X106680000Y-73884000D02*
X107809000Y-73884000D01*
X108001023Y-73691977D02*
X108059819Y-73691977D01*
X107809000Y-73884000D02*
X108001023Y-73691977D01*
X114300000Y-78740000D02*
X114300000Y-77836000D01*
X114300000Y-77836000D02*
X112647002Y-76183002D01*
X112647002Y-76183002D02*
X112647002Y-74797032D01*
X112647002Y-74797032D02*
X112041831Y-74191861D01*
X112041831Y-74191861D02*
X109725419Y-74191861D01*
X109725419Y-74191861D02*
X109301155Y-74191861D01*
X108749765Y-74318987D02*
X108876891Y-74191861D01*
X108876891Y-74191861D02*
X109301155Y-74191861D01*
X106680000Y-74534000D02*
X107809000Y-74534000D01*
X108024013Y-74318987D02*
X108749765Y-74318987D01*
X107809000Y-74534000D02*
X108024013Y-74318987D01*
X63500000Y-64980000D02*
X63500000Y-63676000D01*
X63500000Y-63676000D02*
X63500000Y-55880000D01*
X67310000Y-55720000D02*
X63660000Y-55720000D01*
X63660000Y-55720000D02*
X63500000Y-55880000D01*
X63500000Y-51010000D02*
X63500000Y-41910000D01*
X67310000Y-41750000D02*
X63660000Y-41750000D01*
X63660000Y-41750000D02*
X63500000Y-41910000D01*
X63500000Y-78105000D02*
X63500000Y-69005000D01*
X67310000Y-69215000D02*
X63710000Y-69215000D01*
X63710000Y-69215000D02*
X63500000Y-69005000D01*
X83080000Y-50830000D02*
X86220000Y-50830000D01*
X86220000Y-50830000D02*
X86850000Y-50200000D01*
X103481321Y-43218711D02*
X107050747Y-43218711D01*
X101529020Y-45171012D02*
X103481321Y-43218711D01*
X82002999Y-49045273D02*
X82935273Y-48112999D01*
X108105998Y-43647002D02*
X109220000Y-42533000D01*
X82166398Y-50830000D02*
X82002999Y-50666601D01*
X109220000Y-42533000D02*
X109220000Y-41529000D01*
X107479038Y-43647002D02*
X108105998Y-43647002D01*
X107050747Y-43218711D02*
X107479038Y-43647002D01*
X82935273Y-48112999D02*
X92855330Y-48112998D01*
X82002999Y-50666601D02*
X82002999Y-49045273D01*
X83080000Y-50830000D02*
X82166398Y-50830000D01*
X92855330Y-48112998D02*
X95797315Y-45171013D01*
X95797315Y-45171013D02*
X101529020Y-45171012D01*
X83080000Y-51480000D02*
X86470000Y-51480000D01*
X86470000Y-51480000D02*
X86870000Y-51080000D01*
X81548991Y-48857213D02*
X82747216Y-47658988D01*
X91671044Y-47658988D02*
X94613030Y-44717002D01*
X82174335Y-51480000D02*
X81548991Y-50854656D01*
X81548991Y-50854656D02*
X81548991Y-48857213D01*
X102235000Y-42533000D02*
X102235000Y-41529000D01*
X102235000Y-43822964D02*
X102235000Y-42533000D01*
X101340962Y-44717002D02*
X102235000Y-43822964D01*
X83080000Y-51480000D02*
X82174335Y-51480000D01*
X94613030Y-44717002D02*
X101340962Y-44717002D01*
X82747216Y-47658988D02*
X91671044Y-47658988D01*
X83080000Y-52130000D02*
X86810000Y-52130000D01*
X86810000Y-52130000D02*
X86910000Y-52030000D01*
X81094980Y-51042713D02*
X81094980Y-48669156D01*
X91482986Y-47204978D02*
X95250000Y-43437964D01*
X81094980Y-48669156D02*
X82559158Y-47204978D01*
X82182267Y-52130000D02*
X81094980Y-51042713D01*
X83080000Y-52130000D02*
X82182267Y-52130000D01*
X82559158Y-47204978D02*
X91482986Y-47204978D01*
X95250000Y-43437964D02*
X95250000Y-42533000D01*
X95250000Y-42533000D02*
X95250000Y-41529000D01*
X83080000Y-52780000D02*
X86810000Y-52780000D01*
X86810000Y-52780000D02*
X86860000Y-52830000D01*
X89456996Y-46750968D02*
X90567002Y-45640962D01*
X88265000Y-42533000D02*
X88265000Y-41529000D01*
X82190199Y-52780000D02*
X80640969Y-51230770D01*
X82371100Y-46750968D02*
X89456996Y-46750968D01*
X90567002Y-45640962D02*
X90567002Y-44835002D01*
X80640969Y-48481099D02*
X82371100Y-46750968D01*
X80640969Y-51230770D02*
X80640969Y-48481099D01*
X83080000Y-52780000D02*
X82190199Y-52780000D01*
X90567002Y-44835002D02*
X88265000Y-42533000D01*
X83080000Y-53430000D02*
X86630000Y-53430000D01*
X86630000Y-53430000D02*
X86830000Y-53630000D01*
X81280000Y-42693000D02*
X81280000Y-41689000D01*
X83080000Y-53430000D02*
X82198131Y-53430000D01*
X82198131Y-53430000D02*
X80186958Y-51418827D01*
X80186958Y-51418827D02*
X80186958Y-48293042D01*
X80186958Y-48293042D02*
X81280000Y-47200000D01*
X81280000Y-47200000D02*
X81280000Y-42693000D01*
X83080000Y-54080000D02*
X86370000Y-54080000D01*
X86370000Y-54080000D02*
X86780000Y-54490000D01*
X83080000Y-54080000D02*
X82206063Y-54080000D01*
X81128117Y-53002054D02*
X81128111Y-53002053D01*
X79732947Y-51606883D02*
X79732947Y-48982947D01*
X82206063Y-54080000D02*
X81128117Y-53002054D01*
X79732947Y-48982947D02*
X74295000Y-43545000D01*
X81128111Y-53002053D02*
X79732947Y-51606883D01*
X74295000Y-43545000D02*
X74295000Y-42693000D01*
X74295000Y-42693000D02*
X74295000Y-41689000D01*
M02*
